[
  {
    "Name": "SubscriberKey",
    "FieldType": "Text",
    "ObjectID": "b225c13c-4ef3-4b09-a123-3ef7c3654e6d",
    "MaxLength": "50",
    "Scale": "",
    "IsRequired": "false",
    "IsPrimaryKey": "false",
    "DefaultValue": "",
    "Ordinal": 0
  },
  {
    "Name": "EmailID",
    "FieldType": "EmailAddress",
    "ObjectID": "24f684aa-7590-4bea-9f88-833c07d39a04",
    "MaxLength": "254",
    "Scale": "",
    "IsRequired": "true",
    "IsPrimaryKey": "true",
    "DefaultValue": "",
    "Ordinal": 1
  },
  {
    "Name": "OrderXML",
    "FieldType": "Text",
    "ObjectID": "5fa8f3bb-8be8-4c9e-9124-14bf216746a6",
    "MaxLength": "1000",
    "Scale": "",
    "IsRequired": "false",
    "IsPrimaryKey": "false",
    "DefaultValue": "",
    "Ordinal": 2
  }
]