[
  {
    "_CustomObjectKey": "1",
    "First Name": "Betty",
    "Last Name": "Cooper",
    "Gender": "female",
    "Age": "22",
    "Mobile_opt_in": "",
    "Email_opt_in": "",
    "Weekly": "",
    "Bi_Weekly": "",
    "Monthly": "",
    "Yearly": "",
    "Email": "testqaoce@gmail.com",
    "MDM_PAT_ID": "354732654"
  }
]