[
  {
    "Name": "First Name",
    "FieldType": "Text",
    "ObjectID": "4953fbdb-24a1-4a8d-a2da-a07e3081c192",
    "MaxLength": "50",
    "Scale": "0",
    "IsRequired": "false",
    "IsPrimaryKey": "false",
    "DefaultValue": "",
    "Ordinal": 0
  },
  {
    "Name": "Last Name",
    "FieldType": "Text",
    "ObjectID": "dfada258-ac3a-4c56-a3b1-8c39c5efbfe0",
    "MaxLength": "50",
    "Scale": "0",
    "IsRequired": "false",
    "IsPrimaryKey": "false",
    "DefaultValue": "",
    "Ordinal": 1
  },
  {
    "Name": "Email",
    "FieldType": "EmailAddress",
    "ObjectID": "9f35b333-fe6c-46ab-a844-c77de01b07f7",
    "MaxLength": "254",
    "Scale": "0",
    "IsRequired": "true",
    "IsPrimaryKey": "true",
    "DefaultValue": "",
    "Ordinal": 2
  },
  {
    "Name": "Type",
    "FieldType": "Text",
    "ObjectID": "5f373bcd-835c-4253-8432-6ff003eafea5",
    "MaxLength": "50",
    "Scale": "0",
    "IsRequired": "false",
    "IsPrimaryKey": "false",
    "DefaultValue": "",
    "Ordinal": 3
  },
  {
    "Name": "Membership",
    "FieldType": "Text",
    "ObjectID": "bd3ad8e0-cff0-49c1-b9f7-4d0fe28c1599",
    "MaxLength": "50",
    "Scale": "0",
    "IsRequired": "false",
    "IsPrimaryKey": "false",
    "DefaultValue": "",
    "Ordinal": 4
  }
]