[
  {
    "Name": "SubscriberID",
    "FieldType": "Text",
    "ObjectID": "a212e0bc-09e5-4de4-aa26-9fb52f4e6370",
    "MaxLength": "",
    "Scale": "",
    "IsRequired": "true",
    "IsPrimaryKey": "true",
    "DefaultValue": "",
    "Ordinal": 1
  },
  {
    "Name": "message_type",
    "FieldType": "Text",
    "ObjectID": "28f04d71-6c23-4cdc-a921-8a24dc67b9ec",
    "MaxLength": "256",
    "Scale": "",
    "IsRequired": "false",
    "IsPrimaryKey": "false",
    "DefaultValue": "",
    "Ordinal": 2
  },
  {
    "Name": "lookback_period_days",
    "FieldType": "Number",
    "ObjectID": "3783429b-6abd-4a97-afab-4615d5ae77d3",
    "MaxLength": "",
    "Scale": "",
    "IsRequired": "false",
    "IsPrimaryKey": "false",
    "DefaultValue": "",
    "Ordinal": 3
  },
  {
    "Name": "messages_delivered",
    "FieldType": "Number",
    "ObjectID": "cf7f4099-edc8-4cbd-b7fd-44f72c2263b0",
    "MaxLength": "",
    "Scale": "",
    "IsRequired": "false",
    "IsPrimaryKey": "false",
    "DefaultValue": "",
    "Ordinal": 4
  },
  {
    "Name": "unique_opens",
    "FieldType": "Number",
    "ObjectID": "e06ffbd4-775d-4ca7-aa2d-6a67e0427727",
    "MaxLength": "",
    "Scale": "",
    "IsRequired": "false",
    "IsPrimaryKey": "false",
    "DefaultValue": "",
    "Ordinal": 5
  },
  {
    "Name": "unique_clicks",
    "FieldType": "Number",
    "ObjectID": "a13cea53-d38d-44f5-9ffc-41a298e48e46",
    "MaxLength": "",
    "Scale": "",
    "IsRequired": "false",
    "IsPrimaryKey": "false",
    "DefaultValue": "",
    "Ordinal": 6
  },
  {
    "Name": "unique_unsubscribes",
    "FieldType": "Number",
    "ObjectID": "6c0bb2f0-f84a-4087-a926-637aa5fe154c",
    "MaxLength": "",
    "Scale": "",
    "IsRequired": "false",
    "IsPrimaryKey": "false",
    "DefaultValue": "",
    "Ordinal": 7
  },
  {
    "Name": "frequency_threshold",
    "FieldType": "Number",
    "ObjectID": "4e1e6351-abfb-4436-a2ca-80112bdc87ed",
    "MaxLength": "",
    "Scale": "",
    "IsRequired": "false",
    "IsPrimaryKey": "false",
    "DefaultValue": "",
    "Ordinal": 8
  },
  {
    "Name": "created_at",
    "FieldType": "Date",
    "ObjectID": "f38c2872-24a5-4dc8-9f32-95ad1562a512",
    "MaxLength": "",
    "Scale": "",
    "IsRequired": "true",
    "IsPrimaryKey": "false",
    "DefaultValue": "getdate()",
    "Ordinal": 9
  }
]