[
  {
    "Name": "FIRST_NAME",
    "FieldType": "Text",
    "ObjectID": "5a906841-93e9-4fd8-9526-ba4f3527b0d7",
    "MaxLength": "50",
    "Scale": "0",
    "IsRequired": "false",
    "IsPrimaryKey": "false",
    "DefaultValue": "",
    "Ordinal": 0
  },
  {
    "Name": "MIDDLE_NAME",
    "FieldType": "Text",
    "ObjectID": "0ad6499c-81f6-4ff0-ba5c-80a165f6f51f",
    "MaxLength": "50",
    "Scale": "0",
    "IsRequired": "false",
    "IsPrimaryKey": "false",
    "DefaultValue": "",
    "Ordinal": 1
  },
  {
    "Name": "LAST_NAME",
    "FieldType": "Text",
    "ObjectID": "41ad93a7-3e29-4024-a7b5-4e8c89418133",
    "MaxLength": "50",
    "Scale": "0",
    "IsRequired": "false",
    "IsPrimaryKey": "false",
    "DefaultValue": "",
    "Ordinal": 2
  },
  {
    "Name": "BRAND",
    "FieldType": "Text",
    "ObjectID": "41ef8a83-5bed-471b-a791-e2ad3bc21f59",
    "MaxLength": "50",
    "Scale": "0",
    "IsRequired": "false",
    "IsPrimaryKey": "false",
    "DefaultValue": "",
    "Ordinal": 3
  },
  {
    "Name": "PROGRAM_NAME",
    "FieldType": "Text",
    "ObjectID": "9e2f8774-84f1-4d48-b2e3-f7836de104df",
    "MaxLength": "50",
    "Scale": "0",
    "IsRequired": "false",
    "IsPrimaryKey": "false",
    "DefaultValue": "",
    "Ordinal": 4
  },
  {
    "Name": "SERVICE_NAME",
    "FieldType": "Text",
    "ObjectID": "d76f732b-4e74-4d0e-ad1b-7a3192af5471",
    "MaxLength": "50",
    "Scale": "0",
    "IsRequired": "false",
    "IsPrimaryKey": "false",
    "DefaultValue": "",
    "Ordinal": 5
  },
  {
    "Name": "CHANNEL",
    "FieldType": "Text",
    "ObjectID": "e1764180-e8a9-4b87-8287-ed3ea8b26df3",
    "MaxLength": "50",
    "Scale": "0",
    "IsRequired": "false",
    "IsPrimaryKey": "false",
    "DefaultValue": "",
    "Ordinal": 6
  },
  {
    "Name": "CONSENT_TYPE",
    "FieldType": "Text",
    "ObjectID": "e7d78476-092b-4fca-a8d8-682c834d8c4a",
    "MaxLength": "50",
    "Scale": "0",
    "IsRequired": "false",
    "IsPrimaryKey": "false",
    "DefaultValue": "",
    "Ordinal": 7
  },
  {
    "Name": "TRANSACTION_DATE",
    "FieldType": "Date",
    "ObjectID": "cb171d39-f48a-40af-9728-ce371ad2e5a4",
    "MaxLength": "",
    "Scale": "0",
    "IsRequired": "false",
    "IsPrimaryKey": "false",
    "DefaultValue": "",
    "Ordinal": 8
  },
  {
    "Name": "EXPIRY_DATE",
    "FieldType": "Date",
    "ObjectID": "bca9cbb4-4989-4f3e-a152-77da397e4f9b",
    "MaxLength": "",
    "Scale": "0",
    "IsRequired": "false",
    "IsPrimaryKey": "false",
    "DefaultValue": "",
    "Ordinal": 9
  },
  {
    "Name": "CONSENT_STATUS",
    "FieldType": "Text",
    "ObjectID": "2bffcd10-d1ff-45d8-81e7-fab5c4e4fc04",
    "MaxLength": "50",
    "Scale": "0",
    "IsRequired": "false",
    "IsPrimaryKey": "false",
    "DefaultValue": "",
    "Ordinal": 10
  },
  {
    "Name": "SUFFIX",
    "FieldType": "Text",
    "ObjectID": "7fe3b86b-9433-4145-912e-b1e2156a411f",
    "MaxLength": "50",
    "Scale": "0",
    "IsRequired": "false",
    "IsPrimaryKey": "false",
    "DefaultValue": "",
    "Ordinal": 11
  },
  {
    "Name": "DOB",
    "FieldType": "Date",
    "ObjectID": "76f77185-fd60-4874-b9d6-011cce9bb36e",
    "MaxLength": "",
    "Scale": "0",
    "IsRequired": "false",
    "IsPrimaryKey": "false",
    "DefaultValue": "",
    "Ordinal": 12
  },
  {
    "Name": "SALUTATION",
    "FieldType": "Text",
    "ObjectID": "3a43aa75-f625-4ef9-9370-417777bc2fc7",
    "MaxLength": "50",
    "Scale": "0",
    "IsRequired": "false",
    "IsPrimaryKey": "false",
    "DefaultValue": "",
    "Ordinal": 13
  },
  {
    "Name": "GENDER",
    "FieldType": "Text",
    "ObjectID": "f610b36e-6b65-4362-96b5-36f05eea1f47",
    "MaxLength": "50",
    "Scale": "0",
    "IsRequired": "false",
    "IsPrimaryKey": "false",
    "DefaultValue": "",
    "Ordinal": 15
  },
  {
    "Name": "DIAGNOSED_DATE",
    "FieldType": "Date",
    "ObjectID": "1dd39f42-0591-4178-a719-858cc3743ef7",
    "MaxLength": "",
    "Scale": "0",
    "IsRequired": "false",
    "IsPrimaryKey": "false",
    "DefaultValue": "",
    "Ordinal": 16
  },
  {
    "Name": "ZIP",
    "FieldType": "Text",
    "ObjectID": "2dc43f47-06ae-4cda-8fe9-e7608ea51dac",
    "MaxLength": "50",
    "Scale": "0",
    "IsRequired": "false",
    "IsPrimaryKey": "false",
    "DefaultValue": "",
    "Ordinal": 17
  },
  {
    "Name": "PHONE_NUMBER",
    "FieldType": "Phone",
    "ObjectID": "69338140-03b5-4512-bff2-e5bc7cdfc370",
    "MaxLength": "50",
    "Scale": "0",
    "IsRequired": "false",
    "IsPrimaryKey": "false",
    "DefaultValue": "",
    "Ordinal": 21
  },
  {
    "Name": "EMAIL",
    "FieldType": "EmailAddress",
    "ObjectID": "a35b9106-8822-494c-89c1-15aa0eb80706",
    "MaxLength": "254",
    "Scale": "0",
    "IsRequired": "false",
    "IsPrimaryKey": "false",
    "DefaultValue": "",
    "Ordinal": 22
  },
  {
    "Name": "PATIENT_COMPOSITE_KEY",
    "FieldType": "Text",
    "ObjectID": "8d7b474e-df8b-47a1-9e70-d7cb6512702d",
    "MaxLength": "50",
    "Scale": "0",
    "IsRequired": "false",
    "IsPrimaryKey": "false",
    "DefaultValue": "",
    "Ordinal": 25
  },
  {
    "Name": "UNSUBSCRIPTION_DATE",
    "FieldType": "Date",
    "ObjectID": "7417134f-fc3f-4082-96a9-fa45af845afe",
    "MaxLength": "",
    "Scale": "0",
    "IsRequired": "false",
    "IsPrimaryKey": "false",
    "DefaultValue": "",
    "Ordinal": 26
  },
  {
    "Name": "JOB_ID",
    "FieldType": "Text",
    "ObjectID": "55702e91-2d2d-4484-8d0b-655c45d7c3c2",
    "MaxLength": "50",
    "Scale": "0",
    "IsRequired": "false",
    "IsPrimaryKey": "false",
    "DefaultValue": "",
    "Ordinal": 28
  },
  {
    "Name": "SOURCE_CODE",
    "FieldType": "Text",
    "ObjectID": "1a7d6abe-bb94-4ed2-9d83-2346b801a8cf",
    "MaxLength": "50",
    "Scale": "0",
    "IsRequired": "false",
    "IsPrimaryKey": "false",
    "DefaultValue": "",
    "Ordinal": 29
  },
  {
    "Name": "EMAIL_SENT",
    "FieldType": "Text",
    "ObjectID": "8443f752-332b-46bc-bf5c-833fc817f825",
    "MaxLength": "50",
    "Scale": "0",
    "IsRequired": "false",
    "IsPrimaryKey": "false",
    "DefaultValue": "",
    "Ordinal": 30
  },
  {
    "Name": "CUSTOMER_ID",
    "FieldType": "Text",
    "ObjectID": "7d37e6b7-0425-4281-bc92-884471b9613c",
    "MaxLength": "50",
    "Scale": "0",
    "IsRequired": "true",
    "IsPrimaryKey": "false",
    "DefaultValue": "",
    "Ordinal": 31
  },
  {
    "Name": "EMAIL_SENT_DATE",
    "FieldType": "Date",
    "ObjectID": "2b5812fc-ed6e-4388-a089-fde9449acedf",
    "MaxLength": "",
    "Scale": "0",
    "IsRequired": "false",
    "IsPrimaryKey": "false",
    "DefaultValue": "",
    "Ordinal": 32
  },
  {
    "Name": "COMPOSITE_PRIMARY_KEY",
    "FieldType": "Text",
    "ObjectID": "e4cb99c2-d8f5-4289-8c0b-acdf2c072c52",
    "MaxLength": "50",
    "Scale": "0",
    "IsRequired": "true",
    "IsPrimaryKey": "true",
    "DefaultValue": "",
    "Ordinal": 34
  },
  {
    "Name": "ADDRESS_LINE1",
    "FieldType": "Text",
    "ObjectID": "ed7ce2e4-70a6-45fd-994d-1fc9c39166c2",
    "MaxLength": "50",
    "Scale": "0",
    "IsRequired": "false",
    "IsPrimaryKey": "false",
    "DefaultValue": "",
    "Ordinal": 35
  },
  {
    "Name": "ADDRESS_LINE2",
    "FieldType": "Text",
    "ObjectID": "ea42cd55-0686-40c0-828c-302598a4166a",
    "MaxLength": "50",
    "Scale": "0",
    "IsRequired": "false",
    "IsPrimaryKey": "false",
    "DefaultValue": "",
    "Ordinal": 36
  },
  {
    "Name": "ADDRESS_LINE3",
    "FieldType": "Text",
    "ObjectID": "7827e8a5-0f8c-4820-8502-ce157826b84a",
    "MaxLength": "50",
    "Scale": "0",
    "IsRequired": "false",
    "IsPrimaryKey": "false",
    "DefaultValue": "",
    "Ordinal": 37
  },
  {
    "Name": "ADDRESS_LINE4",
    "FieldType": "Text",
    "ObjectID": "2bd03dfd-cef5-463c-9aff-36e60a9de5a1",
    "MaxLength": "50",
    "Scale": "0",
    "IsRequired": "false",
    "IsPrimaryKey": "false",
    "DefaultValue": "",
    "Ordinal": 38
  },
  {
    "Name": "CITY",
    "FieldType": "Text",
    "ObjectID": "e18bcfbd-95f6-4d99-9fd6-8e4865676ffc",
    "MaxLength": "50",
    "Scale": "0",
    "IsRequired": "false",
    "IsPrimaryKey": "false",
    "DefaultValue": "",
    "Ordinal": 39
  },
  {
    "Name": "STATE",
    "FieldType": "Text",
    "ObjectID": "87904bbf-942a-4d07-9254-1c964159663d",
    "MaxLength": "50",
    "Scale": "0",
    "IsRequired": "false",
    "IsPrimaryKey": "false",
    "DefaultValue": "",
    "Ordinal": 40
  },
  {
    "Name": "ADDRESS_TYPE",
    "FieldType": "Text",
    "ObjectID": "c121a9e4-e4ec-4496-8294-5114125c294f",
    "MaxLength": "50",
    "Scale": "0",
    "IsRequired": "false",
    "IsPrimaryKey": "false",
    "DefaultValue": "",
    "Ordinal": 41
  },
  {
    "Name": "ADDRESS_UPDATE_DATE",
    "FieldType": "Date",
    "ObjectID": "493ae78e-81bd-4681-a735-e97291bf452f",
    "MaxLength": "",
    "Scale": "0",
    "IsRequired": "false",
    "IsPrimaryKey": "false",
    "DefaultValue": "",
    "Ordinal": 42
  },
  {
    "Name": "QUESTION_ID",
    "FieldType": "Text",
    "ObjectID": "938967c1-1692-481f-8bf9-6773a63b1fde",
    "MaxLength": "50",
    "Scale": "0",
    "IsRequired": "true",
    "IsPrimaryKey": "false",
    "DefaultValue": "",
    "Ordinal": 49
  },
  {
    "Name": "ANSWER_ID",
    "FieldType": "Text",
    "ObjectID": "e0fe3180-0a20-4d48-b62d-e2efef98e813",
    "MaxLength": "50",
    "Scale": "0",
    "IsRequired": "false",
    "IsPrimaryKey": "false",
    "DefaultValue": "",
    "Ordinal": 50
  },
  {
    "Name": "ANSWER_TEXT",
    "FieldType": "Text",
    "ObjectID": "d33ef56c-9457-44a2-a1fe-bf98f7e7dc96",
    "MaxLength": "256",
    "Scale": "0",
    "IsRequired": "false",
    "IsPrimaryKey": "false",
    "DefaultValue": "",
    "Ordinal": 51
  },
  {
    "Name": "PROGRAM_CODE",
    "FieldType": "Text",
    "ObjectID": "4afe4c14-c3e9-4bfb-9bda-0f4d8801d6ee",
    "MaxLength": "4000",
    "Scale": "0",
    "IsRequired": "false",
    "IsPrimaryKey": "false",
    "DefaultValue": "",
    "Ordinal": 52
  },
  {
    "Name": "CAMPAIGN_CODE",
    "FieldType": "Text",
    "ObjectID": "0f3d7dc4-51ee-40ba-a54a-105734bfd61e",
    "MaxLength": "4000",
    "Scale": "0",
    "IsRequired": "false",
    "IsPrimaryKey": "false",
    "DefaultValue": "",
    "Ordinal": 53
  },
  {
    "Name": "CAMPAIGN_KIT_CODE",
    "FieldType": "Text",
    "ObjectID": "04015a6d-0a20-46e9-9dab-8e2d4f9e2cef",
    "MaxLength": "4000",
    "Scale": "0",
    "IsRequired": "false",
    "IsPrimaryKey": "false",
    "DefaultValue": "",
    "Ordinal": 55
  },
  {
    "Name": "OFFER_CODE",
    "FieldType": "Text",
    "ObjectID": "9391e74f-45d2-422f-8ccb-bf79c3c60817",
    "MaxLength": "4000",
    "Scale": "0",
    "IsRequired": "false",
    "IsPrimaryKey": "false",
    "DefaultValue": "",
    "Ordinal": 56
  }
]