{
  "$": {
    "xsi:type": "DataExtension"
  },
  "PartnerKey": [
    {
      "$": {
        "xsi:nil": "true"
      }
    }
  ],
  "ObjectID": [
    {
      "$": {
        "xsi:nil": "true"
      }
    }
  ],
  "CustomerKey": [
    "D4F36AB7-D4B5-412B-8804-ABE69B768C48"
  ],
  "Name": [
    "MK_Overwrite"
  ]
}