[
  {
    "Name": "NEW_CUSTOMER_ID",
    "FieldType": "Text",
    "ObjectID": "1c718bd9-821a-4c88-9172-e980ad3baaf2",
    "MaxLength": "50",
    "Scale": "0",
    "IsRequired": "false",
    "IsPrimaryKey": "false",
    "DefaultValue": "",
    "Ordinal": 0
  },
  {
    "Name": "OLD_CUSTOMER_ID",
    "FieldType": "Text",
    "ObjectID": "2d99ff32-3c98-4926-b321-13aca688ab07",
    "MaxLength": "50",
    "Scale": "0",
    "IsRequired": "false",
    "IsPrimaryKey": "false",
    "DefaultValue": "",
    "Ordinal": 1
  },
  {
    "Name": "OLD_CUSTOMER_ID_CREATED_DATE",
    "FieldType": "Text",
    "ObjectID": "fbb9b222-a7f8-4cd7-867d-d6ce9bc0d8bf",
    "MaxLength": "50",
    "Scale": "0",
    "IsRequired": "false",
    "IsPrimaryKey": "false",
    "DefaultValue": "",
    "Ordinal": 2
  },
  {
    "Name": "NEW_CUSTOMER_ID_CREATED_DATE",
    "FieldType": "Text",
    "ObjectID": "f451dd62-95d0-453b-8ff7-ef6a1f2a8e2c",
    "MaxLength": "50",
    "Scale": "0",
    "IsRequired": "false",
    "IsPrimaryKey": "false",
    "DefaultValue": "",
    "Ordinal": 3
  },
  {
    "Name": "MERGE_DATE",
    "FieldType": "Text",
    "ObjectID": "02083d67-1cb2-464b-be62-caf5b7072865",
    "MaxLength": "50",
    "Scale": "0",
    "IsRequired": "false",
    "IsPrimaryKey": "false",
    "DefaultValue": "",
    "Ordinal": 4
  },
  {
    "Name": "MOVEMENT_SEQUENCE_ID",
    "FieldType": "Text",
    "ObjectID": "15071442-5d87-42e1-9098-03a821b3d922",
    "MaxLength": "50",
    "Scale": "0",
    "IsRequired": "false",
    "IsPrimaryKey": "false",
    "DefaultValue": "",
    "Ordinal": 5
  },
  {
    "Name": "SEQ_CREATED_DATE",
    "FieldType": "Text",
    "ObjectID": "a5f5a8ae-1f79-41c5-be7c-56725f399f59",
    "MaxLength": "50",
    "Scale": "0",
    "IsRequired": "false",
    "IsPrimaryKey": "false",
    "DefaultValue": "",
    "Ordinal": 6
  },
  {
    "Name": "SEQUENCE_NO",
    "FieldType": "Text",
    "ObjectID": "794a83a8-f0b3-4893-bc92-cd4f1bf260a3",
    "MaxLength": "50",
    "Scale": "",
    "IsRequired": "true",
    "IsPrimaryKey": "true",
    "DefaultValue": "",
    "Ordinal": 8
  }
]