[
  {
    "Name": "ID",
    "FieldType": "Text",
    "ObjectID": "de7c168e-a5f0-4f9f-bead-3f1381f41304",
    "MaxLength": "50",
    "Scale": "0",
    "IsRequired": "true",
    "IsPrimaryKey": "true",
    "DefaultValue": "",
    "Ordinal": 0
  },
  {
    "Name": "CMA_ID",
    "FieldType": "Text",
    "ObjectID": "4e173e29-8fee-44c7-b70c-a2f125a28735",
    "MaxLength": "50",
    "Scale": "0",
    "IsRequired": "false",
    "IsPrimaryKey": "false",
    "DefaultValue": "",
    "Ordinal": 1
  },
  {
    "Name": "ADDRESS_ID",
    "FieldType": "Text",
    "ObjectID": "fa04a1f1-4157-46ae-a46b-8caf0193a1a0",
    "MaxLength": "50",
    "Scale": "0",
    "IsRequired": "false",
    "IsPrimaryKey": "false",
    "DefaultValue": "",
    "Ordinal": 2
  },
  {
    "Name": "CONTACT_ID",
    "FieldType": "Text",
    "ObjectID": "d9d874bb-5b2d-409f-801d-95ef45d6c667",
    "MaxLength": "50",
    "Scale": "0",
    "IsRequired": "false",
    "IsPrimaryKey": "false",
    "DefaultValue": "",
    "Ordinal": 3
  },
  {
    "Name": "PROF_ADDRESS_ID",
    "FieldType": "Text",
    "ObjectID": "58e5d8d4-7d73-430e-a1df-61a14d228796",
    "MaxLength": "50",
    "Scale": "0",
    "IsRequired": "false",
    "IsPrimaryKey": "false",
    "DefaultValue": "",
    "Ordinal": 4
  },
  {
    "Name": "PRIMARY_KEYCODE",
    "FieldType": "Text",
    "ObjectID": "5002c3d1-4b1c-469d-999d-05da9bcd6f2f",
    "MaxLength": "50",
    "Scale": "0",
    "IsRequired": "false",
    "IsPrimaryKey": "false",
    "DefaultValue": "",
    "Ordinal": 5
  },
  {
    "Name": "ME_NUMBER",
    "FieldType": "Text",
    "ObjectID": "c5c2f6a1-11d8-4d10-95cc-75b56a96073d",
    "MaxLength": "50",
    "Scale": "0",
    "IsRequired": "false",
    "IsPrimaryKey": "false",
    "DefaultValue": "",
    "Ordinal": 6
  },
  {
    "Name": "NPI_NUMBER",
    "FieldType": "Text",
    "ObjectID": "ce963327-e95a-4abe-bf71-c4d08c37fa22",
    "MaxLength": "50",
    "Scale": "0",
    "IsRequired": "false",
    "IsPrimaryKey": "false",
    "DefaultValue": "",
    "Ordinal": 7
  },
  {
    "Name": "STATE_LIC_NUMBER",
    "FieldType": "Text",
    "ObjectID": "5f7e58eb-1e84-474c-b263-d7afc113dbe5",
    "MaxLength": "50",
    "Scale": "0",
    "IsRequired": "false",
    "IsPrimaryKey": "false",
    "DefaultValue": "",
    "Ordinal": 8
  },
  {
    "Name": "STATE_LIC_NUMBER_STATE",
    "FieldType": "Text",
    "ObjectID": "f5faa84c-df69-47d7-8aaa-b69f162fd7df",
    "MaxLength": "50",
    "Scale": "0",
    "IsRequired": "false",
    "IsPrimaryKey": "false",
    "DefaultValue": "",
    "Ordinal": 9
  },
  {
    "Name": "STATE_LIC_EXPIRATION_DATE",
    "FieldType": "Text",
    "ObjectID": "16858b93-556f-4fe4-a9c9-5be6c19e328e",
    "MaxLength": "",
    "Scale": "0",
    "IsRequired": "false",
    "IsPrimaryKey": "false",
    "DefaultValue": "",
    "Ordinal": 10
  },
  {
    "Name": "SALUTATION",
    "FieldType": "Text",
    "ObjectID": "e8efe697-cae2-4baa-a924-2c7a10160cbf",
    "MaxLength": "50",
    "Scale": "0",
    "IsRequired": "false",
    "IsPrimaryKey": "false",
    "DefaultValue": "",
    "Ordinal": 11
  },
  {
    "Name": "FIRST_NAME",
    "FieldType": "Text",
    "ObjectID": "f0ac47c8-fb06-48ab-9d81-691a7858d31f",
    "MaxLength": "50",
    "Scale": "0",
    "IsRequired": "false",
    "IsPrimaryKey": "false",
    "DefaultValue": "",
    "Ordinal": 12
  },
  {
    "Name": "MIDDLE_NAME",
    "FieldType": "Text",
    "ObjectID": "a8896133-45fd-48a5-8130-e258809c5410",
    "MaxLength": "50",
    "Scale": "0",
    "IsRequired": "false",
    "IsPrimaryKey": "false",
    "DefaultValue": "",
    "Ordinal": 13
  },
  {
    "Name": "LAST_NAME",
    "FieldType": "Text",
    "ObjectID": "37755c08-9080-4e51-87b1-2598656b1599",
    "MaxLength": "50",
    "Scale": "0",
    "IsRequired": "false",
    "IsPrimaryKey": "false",
    "DefaultValue": "",
    "Ordinal": 14
  },
  {
    "Name": "SUFFIX",
    "FieldType": "Text",
    "ObjectID": "5dcb5514-e1b5-43e4-8583-b475c7296450",
    "MaxLength": "50",
    "Scale": "0",
    "IsRequired": "false",
    "IsPrimaryKey": "false",
    "DefaultValue": "",
    "Ordinal": 15
  },
  {
    "Name": "TITLE",
    "FieldType": "Text",
    "ObjectID": "43466dee-2356-4e0b-8d4d-d66e0f41dbf3",
    "MaxLength": "50",
    "Scale": "0",
    "IsRequired": "false",
    "IsPrimaryKey": "false",
    "DefaultValue": "",
    "Ordinal": 16
  },
  {
    "Name": "FREEFORM_NAME",
    "FieldType": "Text",
    "ObjectID": "8a3b7de3-4c9c-4a9f-bfe4-a31890812403",
    "MaxLength": "50",
    "Scale": "0",
    "IsRequired": "false",
    "IsPrimaryKey": "false",
    "DefaultValue": "",
    "Ordinal": 17
  },
  {
    "Name": "ADDRESS1",
    "FieldType": "Text",
    "ObjectID": "9ca5504e-a23b-4fa9-ad1e-31e258d52b28",
    "MaxLength": "50",
    "Scale": "0",
    "IsRequired": "false",
    "IsPrimaryKey": "false",
    "DefaultValue": "",
    "Ordinal": 18
  },
  {
    "Name": "ADDRESS2",
    "FieldType": "Text",
    "ObjectID": "57881893-7806-4274-9b69-bf976e8f7be2",
    "MaxLength": "50",
    "Scale": "0",
    "IsRequired": "false",
    "IsPrimaryKey": "false",
    "DefaultValue": "",
    "Ordinal": 19
  },
  {
    "Name": "ADDRESS3",
    "FieldType": "Text",
    "ObjectID": "86d9238c-ae5f-498a-9550-d98db24d83c5",
    "MaxLength": "50",
    "Scale": "0",
    "IsRequired": "false",
    "IsPrimaryKey": "false",
    "DefaultValue": "",
    "Ordinal": 20
  },
  {
    "Name": "CITY",
    "FieldType": "Text",
    "ObjectID": "92811251-d7ef-4273-8ec1-3191cbc3b935",
    "MaxLength": "50",
    "Scale": "0",
    "IsRequired": "false",
    "IsPrimaryKey": "false",
    "DefaultValue": "",
    "Ordinal": 21
  },
  {
    "Name": "STATE_CD",
    "FieldType": "Text",
    "ObjectID": "5d9845ca-f490-48bd-b140-c21c22c68249",
    "MaxLength": "50",
    "Scale": "0",
    "IsRequired": "false",
    "IsPrimaryKey": "false",
    "DefaultValue": "",
    "Ordinal": 22
  },
  {
    "Name": "ZIP",
    "FieldType": "Text",
    "ObjectID": "74823d51-da1f-4543-b8bc-decadc1701e7",
    "MaxLength": "50",
    "Scale": "0",
    "IsRequired": "false",
    "IsPrimaryKey": "false",
    "DefaultValue": "",
    "Ordinal": 23
  },
  {
    "Name": "ZIP_4",
    "FieldType": "Text",
    "ObjectID": "118f805b-3986-4efe-84c6-76badd810084",
    "MaxLength": "50",
    "Scale": "0",
    "IsRequired": "false",
    "IsPrimaryKey": "false",
    "DefaultValue": "",
    "Ordinal": 24
  },
  {
    "Name": "COUNTY",
    "FieldType": "Text",
    "ObjectID": "997197b5-5a04-4eac-a715-09c56cf88781",
    "MaxLength": "50",
    "Scale": "0",
    "IsRequired": "false",
    "IsPrimaryKey": "false",
    "DefaultValue": "",
    "Ordinal": 25
  },
  {
    "Name": "COUNTRY",
    "FieldType": "Text",
    "ObjectID": "7943ac00-da55-408d-9813-b9a016845c97",
    "MaxLength": "50",
    "Scale": "0",
    "IsRequired": "false",
    "IsPrimaryKey": "false",
    "DefaultValue": "",
    "Ordinal": 26
  },
  {
    "Name": "PHONE_NUMBER",
    "FieldType": "Text",
    "ObjectID": "c8476405-d44f-449c-a9e7-7c722080dedd",
    "MaxLength": "50",
    "Scale": "0",
    "IsRequired": "false",
    "IsPrimaryKey": "false",
    "DefaultValue": "",
    "Ordinal": 27
  },
  {
    "Name": "SMS",
    "FieldType": "Text",
    "ObjectID": "12872d22-fdd0-40a1-93dc-f5832afd3768",
    "MaxLength": "50",
    "Scale": "0",
    "IsRequired": "false",
    "IsPrimaryKey": "false",
    "DefaultValue": "",
    "Ordinal": 28
  },
  {
    "Name": "FAX_NUMBER",
    "FieldType": "Text",
    "ObjectID": "e3a51682-3804-4055-9c15-59ee8081a1b9",
    "MaxLength": "50",
    "Scale": "0",
    "IsRequired": "false",
    "IsPrimaryKey": "false",
    "DefaultValue": "",
    "Ordinal": 29
  },
  {
    "Name": "EMAIL_ADDRESS",
    "FieldType": "Text",
    "ObjectID": "9231ec5d-1be0-4ec5-800d-e5bf884941fe",
    "MaxLength": "50",
    "Scale": "0",
    "IsRequired": "false",
    "IsPrimaryKey": "false",
    "DefaultValue": "",
    "Ordinal": 30
  },
  {
    "Name": "HTML_PLAINTEXT_AOL",
    "FieldType": "Text",
    "ObjectID": "5d85141c-d345-4c98-804c-b878c0d4b434",
    "MaxLength": "50",
    "Scale": "0",
    "IsRequired": "false",
    "IsPrimaryKey": "false",
    "DefaultValue": "",
    "Ordinal": 31
  },
  {
    "Name": "GENDER",
    "FieldType": "Text",
    "ObjectID": "7acf7dee-d6a0-4b35-b377-b3c81d1bcf13",
    "MaxLength": "50",
    "Scale": "0",
    "IsRequired": "false",
    "IsPrimaryKey": "false",
    "DefaultValue": "",
    "Ordinal": 32
  },
  {
    "Name": "SALES_FORCE_TARGET_IND",
    "FieldType": "Text",
    "ObjectID": "a8e740d3-7202-47a1-bfad-bd3503367649",
    "MaxLength": "50",
    "Scale": "0",
    "IsRequired": "false",
    "IsPrimaryKey": "false",
    "DefaultValue": "",
    "Ordinal": 33
  },
  {
    "Name": "PRIMARY_SPECIALTY",
    "FieldType": "Text",
    "ObjectID": "84454ba7-c415-495e-a1b5-83f22d5fdf1e",
    "MaxLength": "50",
    "Scale": "0",
    "IsRequired": "false",
    "IsPrimaryKey": "false",
    "DefaultValue": "",
    "Ordinal": 34
  },
  {
    "Name": "TERRITORY_ID",
    "FieldType": "Text",
    "ObjectID": "8f854233-3df8-4e08-8714-54505e2e2cc8",
    "MaxLength": "50",
    "Scale": "0",
    "IsRequired": "false",
    "IsPrimaryKey": "false",
    "DefaultValue": "",
    "Ordinal": 35
  },
  {
    "Name": "PRACTICE_NAME",
    "FieldType": "Text",
    "ObjectID": "7c8fc594-0160-42a5-abb1-af5790e3e133",
    "MaxLength": "50",
    "Scale": "0",
    "IsRequired": "false",
    "IsPrimaryKey": "false",
    "DefaultValue": "",
    "Ordinal": 36
  },
  {
    "Name": "SEGMENT_CODE",
    "FieldType": "Text",
    "ObjectID": "fe2d9f46-3e48-4566-908d-489167cfc0dd",
    "MaxLength": "50",
    "Scale": "0",
    "IsRequired": "false",
    "IsPrimaryKey": "false",
    "DefaultValue": "",
    "Ordinal": 37
  },
  {
    "Name": "CAMPAIGN_CODE",
    "FieldType": "Text",
    "ObjectID": "18b84acd-7a5e-4439-80b8-4170907d1f32",
    "MaxLength": "50",
    "Scale": "0",
    "IsRequired": "false",
    "IsPrimaryKey": "false",
    "DefaultValue": "",
    "Ordinal": 38
  },
  {
    "Name": "CAMPAIGN_CODE_DESC",
    "FieldType": "Text",
    "ObjectID": "45e7534a-99cb-4d29-9a38-908052d8ce7e",
    "MaxLength": "50",
    "Scale": "0",
    "IsRequired": "false",
    "IsPrimaryKey": "false",
    "DefaultValue": "",
    "Ordinal": 39
  },
  {
    "Name": "OFFER_CODE",
    "FieldType": "Text",
    "ObjectID": "ae6cf21b-0729-4751-846e-e05278f7599b",
    "MaxLength": "50",
    "Scale": "0",
    "IsRequired": "false",
    "IsPrimaryKey": "false",
    "DefaultValue": "",
    "Ordinal": 40
  },
  {
    "Name": "OFFER_CODE_DESC",
    "FieldType": "Text",
    "ObjectID": "98eadbc1-3682-4e1e-8a50-74b91fbc2b1e",
    "MaxLength": "50",
    "Scale": "0",
    "IsRequired": "false",
    "IsPrimaryKey": "false",
    "DefaultValue": "",
    "Ordinal": 41
  },
  {
    "Name": "TREATMENT_CODE",
    "FieldType": "Text",
    "ObjectID": "7a83c0dc-8714-45b7-8d28-a78bcf523880",
    "MaxLength": "50",
    "Scale": "0",
    "IsRequired": "false",
    "IsPrimaryKey": "false",
    "DefaultValue": "",
    "Ordinal": 42
  },
  {
    "Name": "TREATMENT_CODE_DESC",
    "FieldType": "Text",
    "ObjectID": "cf054a2c-3303-4bf4-a48a-9938b084ab1b",
    "MaxLength": "50",
    "Scale": "0",
    "IsRequired": "false",
    "IsPrimaryKey": "false",
    "DefaultValue": "",
    "Ordinal": 43
  },
  {
    "Name": "CELL_CODE",
    "FieldType": "Text",
    "ObjectID": "0bd8a542-6e6f-4ec0-893c-2e9eded0b3e7",
    "MaxLength": "50",
    "Scale": "0",
    "IsRequired": "false",
    "IsPrimaryKey": "false",
    "DefaultValue": "",
    "Ordinal": 44
  },
  {
    "Name": "CELL_CODE_DESC",
    "FieldType": "Text",
    "ObjectID": "aaec83b4-97d4-46ad-afb7-806373317aa1",
    "MaxLength": "50",
    "Scale": "0",
    "IsRequired": "false",
    "IsPrimaryKey": "false",
    "DefaultValue": "",
    "Ordinal": 45
  },
  {
    "Name": "TARGET_DATE",
    "FieldType": "Text",
    "ObjectID": "cd01ca63-dab2-4e31-a4d3-6c90f143a0c6",
    "MaxLength": "50",
    "Scale": "0",
    "IsRequired": "false",
    "IsPrimaryKey": "false",
    "DefaultValue": "",
    "Ordinal": 46
  },
  {
    "Name": "DROP_DATE",
    "FieldType": "Text",
    "ObjectID": "cecf886d-930d-48da-9cad-1dc50bb6eb72",
    "MaxLength": "50",
    "Scale": "0",
    "IsRequired": "false",
    "IsPrimaryKey": "false",
    "DefaultValue": "",
    "Ordinal": 47
  },
  {
    "Name": "BRAND_ABBREVIATION",
    "FieldType": "Text",
    "ObjectID": "6dfc2191-ed98-4104-965f-cc61630f1607",
    "MaxLength": "50",
    "Scale": "0",
    "IsRequired": "false",
    "IsPrimaryKey": "false",
    "DefaultValue": "",
    "Ordinal": 48
  },
  {
    "Name": "CHANNEL_CD",
    "FieldType": "Text",
    "ObjectID": "139174da-b250-44b1-9339-cd7759d97515",
    "MaxLength": "50",
    "Scale": "0",
    "IsRequired": "false",
    "IsPrimaryKey": "false",
    "DefaultValue": "",
    "Ordinal": 49
  },
  {
    "Name": "VENDOR_CD",
    "FieldType": "Text",
    "ObjectID": "d55e13a7-c01b-4b0f-8e5e-c68886c3be06",
    "MaxLength": "50",
    "Scale": "0",
    "IsRequired": "false",
    "IsPrimaryKey": "false",
    "DefaultValue": "",
    "Ordinal": 50
  },
  {
    "Name": "DECILE",
    "FieldType": "Text",
    "ObjectID": "0a94a3ba-ad37-48ee-8300-2a5ffc7e51a0",
    "MaxLength": "50",
    "Scale": "0",
    "IsRequired": "false",
    "IsPrimaryKey": "false",
    "DefaultValue": "",
    "Ordinal": 51
  },
  {
    "Name": "QUINTILE",
    "FieldType": "Text",
    "ObjectID": "9009666e-c786-45b5-9cd8-02db5e33e7f8",
    "MaxLength": "50",
    "Scale": "0",
    "IsRequired": "false",
    "IsPrimaryKey": "false",
    "DefaultValue": "",
    "Ordinal": 52
  },
  {
    "Name": "SAMPLE_QTY",
    "FieldType": "Text",
    "ObjectID": "5129be3d-6526-4507-878b-14d6493e5cae",
    "MaxLength": "50",
    "Scale": "0",
    "IsRequired": "false",
    "IsPrimaryKey": "false",
    "DefaultValue": "",
    "Ordinal": 53
  },
  {
    "Name": "SAMPLE_DOSAGE",
    "FieldType": "Text",
    "ObjectID": "d0245bb0-38c3-4039-b866-53879539728e",
    "MaxLength": "50",
    "Scale": "0",
    "IsRequired": "false",
    "IsPrimaryKey": "false",
    "DefaultValue": "",
    "Ordinal": 54
  },
  {
    "Name": "CUSTOM_1",
    "FieldType": "Text",
    "ObjectID": "dab59335-6029-409e-9cb1-213b7b1d61f7",
    "MaxLength": "50",
    "Scale": "0",
    "IsRequired": "false",
    "IsPrimaryKey": "false",
    "DefaultValue": "",
    "Ordinal": 55
  },
  {
    "Name": "CUSTOM_2",
    "FieldType": "Text",
    "ObjectID": "089dfc37-f3f1-4849-88fb-44f7a9e5ffb4",
    "MaxLength": "50",
    "Scale": "0",
    "IsRequired": "false",
    "IsPrimaryKey": "false",
    "DefaultValue": "",
    "Ordinal": 56
  },
  {
    "Name": "CUSTOM_3",
    "FieldType": "Text",
    "ObjectID": "9462a756-c086-4c7e-ac07-91a6f7e4e86f",
    "MaxLength": "50",
    "Scale": "0",
    "IsRequired": "false",
    "IsPrimaryKey": "false",
    "DefaultValue": "",
    "Ordinal": 57
  },
  {
    "Name": "CUSTOM_4",
    "FieldType": "Text",
    "ObjectID": "c1eb71dc-960b-43c4-a4f4-ed6e5f9b4f86",
    "MaxLength": "50",
    "Scale": "0",
    "IsRequired": "false",
    "IsPrimaryKey": "false",
    "DefaultValue": "",
    "Ordinal": 58
  },
  {
    "Name": "CUSTOM_5",
    "FieldType": "Text",
    "ObjectID": "0e185656-9540-44e1-95e1-805695512c83",
    "MaxLength": "50",
    "Scale": "0",
    "IsRequired": "false",
    "IsPrimaryKey": "false",
    "DefaultValue": "",
    "Ordinal": 59
  },
  {
    "Name": "CUSTOM_6",
    "FieldType": "Text",
    "ObjectID": "cdb3ba9c-a690-4793-87df-76ab89a3ca94",
    "MaxLength": "50",
    "Scale": "0",
    "IsRequired": "false",
    "IsPrimaryKey": "false",
    "DefaultValue": "",
    "Ordinal": 60
  },
  {
    "Name": "CUSTOM_7",
    "FieldType": "Text",
    "ObjectID": "fd97d045-c5a1-4470-ad41-476d586d8d72",
    "MaxLength": "50",
    "Scale": "0",
    "IsRequired": "false",
    "IsPrimaryKey": "false",
    "DefaultValue": "",
    "Ordinal": 61
  },
  {
    "Name": "CUSTOM_8",
    "FieldType": "Text",
    "ObjectID": "5dcba321-8fa7-4d17-855c-e5417a5382ba",
    "MaxLength": "50",
    "Scale": "0",
    "IsRequired": "false",
    "IsPrimaryKey": "false",
    "DefaultValue": "",
    "Ordinal": 62
  },
  {
    "Name": "CUSTOM_9",
    "FieldType": "Text",
    "ObjectID": "d1fac8d8-8a02-4133-9957-782cbc0bd9f6",
    "MaxLength": "50",
    "Scale": "0",
    "IsRequired": "false",
    "IsPrimaryKey": "false",
    "DefaultValue": "",
    "Ordinal": 63
  },
  {
    "Name": "CUSTOM_10",
    "FieldType": "Text",
    "ObjectID": "697ee55a-0f54-40ac-a244-5b749605617c",
    "MaxLength": "50",
    "Scale": "0",
    "IsRequired": "false",
    "IsPrimaryKey": "false",
    "DefaultValue": "",
    "Ordinal": 64
  },
  {
    "Name": "CUSTOM_11",
    "FieldType": "Text",
    "ObjectID": "126e0508-576f-4630-95e8-d76661a08700",
    "MaxLength": "50",
    "Scale": "0",
    "IsRequired": "false",
    "IsPrimaryKey": "false",
    "DefaultValue": "",
    "Ordinal": 65
  },
  {
    "Name": "CUSTOM_12",
    "FieldType": "Text",
    "ObjectID": "bf4c1d1b-3ae2-4dad-83e6-276ffc021a53",
    "MaxLength": "50",
    "Scale": "0",
    "IsRequired": "false",
    "IsPrimaryKey": "false",
    "DefaultValue": "",
    "Ordinal": 66
  },
  {
    "Name": "CUSTOM_13",
    "FieldType": "Text",
    "ObjectID": "25331a6b-8800-47e5-8c2a-8116b02ee853",
    "MaxLength": "50",
    "Scale": "0",
    "IsRequired": "false",
    "IsPrimaryKey": "false",
    "DefaultValue": "",
    "Ordinal": 67
  },
  {
    "Name": "CUSTOM_14",
    "FieldType": "Text",
    "ObjectID": "150302d8-c673-4916-a992-69874d294630",
    "MaxLength": "50",
    "Scale": "0",
    "IsRequired": "false",
    "IsPrimaryKey": "false",
    "DefaultValue": "",
    "Ordinal": 68
  },
  {
    "Name": "CUSTOM_15",
    "FieldType": "Text",
    "ObjectID": "a84934a3-8df8-4cd9-8480-4acc7c88a582",
    "MaxLength": "50",
    "Scale": "0",
    "IsRequired": "false",
    "IsPrimaryKey": "false",
    "DefaultValue": "",
    "Ordinal": 69
  },
  {
    "Name": "CUSTOM_16",
    "FieldType": "Text",
    "ObjectID": "cfe35dc8-1f7c-48c9-b0d7-ab8a4b048e4a",
    "MaxLength": "50",
    "Scale": "0",
    "IsRequired": "false",
    "IsPrimaryKey": "false",
    "DefaultValue": "",
    "Ordinal": 70
  },
  {
    "Name": "CUSTOM_17",
    "FieldType": "Text",
    "ObjectID": "07a78c74-aec1-4861-acbe-f617535d65c4",
    "MaxLength": "50",
    "Scale": "0",
    "IsRequired": "false",
    "IsPrimaryKey": "false",
    "DefaultValue": "",
    "Ordinal": 71
  },
  {
    "Name": "CUSTOM_18",
    "FieldType": "Text",
    "ObjectID": "d22f92a2-87cf-498f-812c-cdeaf26b1468",
    "MaxLength": "50",
    "Scale": "0",
    "IsRequired": "false",
    "IsPrimaryKey": "false",
    "DefaultValue": "",
    "Ordinal": 72
  },
  {
    "Name": "CUSTOM_19",
    "FieldType": "Text",
    "ObjectID": "85e9e4c6-1f24-4a37-a67f-a2cfd4e3bbd5",
    "MaxLength": "50",
    "Scale": "0",
    "IsRequired": "false",
    "IsPrimaryKey": "false",
    "DefaultValue": "",
    "Ordinal": 73
  },
  {
    "Name": "CUSTOM_20",
    "FieldType": "Text",
    "ObjectID": "3ad4179b-f2c2-4288-b52a-aaeee72e0689",
    "MaxLength": "50",
    "Scale": "0",
    "IsRequired": "false",
    "IsPrimaryKey": "false",
    "DefaultValue": "",
    "Ordinal": 74
  },
  {
    "Name": "CUSTOM_21",
    "FieldType": "Text",
    "ObjectID": "1986cbd3-cd2c-4073-963c-d100344d6e86",
    "MaxLength": "50",
    "Scale": "0",
    "IsRequired": "false",
    "IsPrimaryKey": "false",
    "DefaultValue": "",
    "Ordinal": 75
  },
  {
    "Name": "CUSTOM_22",
    "FieldType": "Text",
    "ObjectID": "b53a7ee3-62aa-426e-8255-6ce79abe4658",
    "MaxLength": "50",
    "Scale": "0",
    "IsRequired": "false",
    "IsPrimaryKey": "false",
    "DefaultValue": "",
    "Ordinal": 76
  },
  {
    "Name": "CUSTOM_23",
    "FieldType": "Text",
    "ObjectID": "4c9754da-0edb-42cd-9792-96c26a734b68",
    "MaxLength": "50",
    "Scale": "0",
    "IsRequired": "false",
    "IsPrimaryKey": "false",
    "DefaultValue": "",
    "Ordinal": 77
  },
  {
    "Name": "CUSTOM_24",
    "FieldType": "Text",
    "ObjectID": "79ce45aa-86d4-405c-a258-23094e6bfbe1",
    "MaxLength": "50",
    "Scale": "0",
    "IsRequired": "false",
    "IsPrimaryKey": "false",
    "DefaultValue": "",
    "Ordinal": 78
  },
  {
    "Name": "CUSTOM_25",
    "FieldType": "Text",
    "ObjectID": "c683b938-3c4a-4de2-953b-29941fe6f8d4",
    "MaxLength": "50",
    "Scale": "0",
    "IsRequired": "false",
    "IsPrimaryKey": "false",
    "DefaultValue": "",
    "Ordinal": 79
  },
  {
    "Name": "CUSTOM_26",
    "FieldType": "Text",
    "ObjectID": "e2c8ddf0-e8ed-48b0-bce8-e28cdfcd8037",
    "MaxLength": "50",
    "Scale": "0",
    "IsRequired": "false",
    "IsPrimaryKey": "false",
    "DefaultValue": "",
    "Ordinal": 80
  },
  {
    "Name": "CUSTOM_27",
    "FieldType": "Text",
    "ObjectID": "cedb208a-b02a-4cb7-8840-7cd1969acce8",
    "MaxLength": "50",
    "Scale": "0",
    "IsRequired": "false",
    "IsPrimaryKey": "false",
    "DefaultValue": "",
    "Ordinal": 81
  },
  {
    "Name": "CUSTOM_28",
    "FieldType": "Text",
    "ObjectID": "85a9eb84-2e87-43c2-8a14-9445969992a9",
    "MaxLength": "50",
    "Scale": "0",
    "IsRequired": "false",
    "IsPrimaryKey": "false",
    "DefaultValue": "",
    "Ordinal": 82
  },
  {
    "Name": "CUSTOM_29",
    "FieldType": "Text",
    "ObjectID": "f0afeca4-6bf3-4188-886b-ade0c3085b4e",
    "MaxLength": "50",
    "Scale": "0",
    "IsRequired": "false",
    "IsPrimaryKey": "false",
    "DefaultValue": "",
    "Ordinal": 83
  },
  {
    "Name": "CUSTOM_30",
    "FieldType": "Text",
    "ObjectID": "a8538feb-97a3-4294-babe-0c058ef205c6",
    "MaxLength": "50",
    "Scale": "0",
    "IsRequired": "false",
    "IsPrimaryKey": "false",
    "DefaultValue": "",
    "Ordinal": 84
  },
  {
    "Name": "UNIQUE_IDENTIFIER",
    "FieldType": "Text",
    "ObjectID": "a6fc9110-ae7d-4aef-a7fc-ff55b54d5c55",
    "MaxLength": "50",
    "Scale": "",
    "IsRequired": "false",
    "IsPrimaryKey": "false",
    "DefaultValue": "",
    "Ordinal": 85
  },
  {
    "Name": "EMAIL_ID",
    "FieldType": "EmailAddress",
    "ObjectID": "38f72047-d37f-45dc-b403-95436ade2bf8",
    "MaxLength": "254",
    "Scale": "",
    "IsRequired": "false",
    "IsPrimaryKey": "false",
    "DefaultValue": "",
    "Ordinal": 86
  },
  {
    "Name": "COMPOSITE_KEY",
    "FieldType": "Text",
    "ObjectID": "02539ab1-318f-46a3-8f9e-514c85d221b0",
    "MaxLength": "50",
    "Scale": "",
    "IsRequired": "false",
    "IsPrimaryKey": "false",
    "DefaultValue": "",
    "Ordinal": 87
  },
  {
    "Name": "RESPONSE_DATE",
    "FieldType": "Date",
    "ObjectID": "0a7bacd1-c144-430f-a5a4-e9183e6b0880",
    "MaxLength": "",
    "Scale": "",
    "IsRequired": "false",
    "IsPrimaryKey": "false",
    "DefaultValue": "",
    "Ordinal": 88
  },
  {
    "Name": "PREFERRED_CHANNEL_CD",
    "FieldType": "Text",
    "ObjectID": "6fbeb8bb-3d99-4be0-a893-77615dd916d7",
    "MaxLength": "50",
    "Scale": "",
    "IsRequired": "false",
    "IsPrimaryKey": "false",
    "DefaultValue": "",
    "Ordinal": 89
  },
  {
    "Name": "SAMPLE_QTY_REQUESTED",
    "FieldType": "Text",
    "ObjectID": "3038d340-86c9-4e39-9bfe-dd068abc9fdc",
    "MaxLength": "50",
    "Scale": "",
    "IsRequired": "false",
    "IsPrimaryKey": "false",
    "DefaultValue": "",
    "Ordinal": 90
  },
  {
    "Name": "SAMPLE_QTY_FULFILLED",
    "FieldType": "Text",
    "ObjectID": "4a11da00-fbd7-4535-94b5-33a3123d2820",
    "MaxLength": "50",
    "Scale": "",
    "IsRequired": "false",
    "IsPrimaryKey": "false",
    "DefaultValue": "",
    "Ordinal": 91
  },
  {
    "Name": "SAMPLE_DOSAGE_REQUESTED",
    "FieldType": "Text",
    "ObjectID": "a0470313-52ed-4edc-b1f2-447d5ee577a2",
    "MaxLength": "50",
    "Scale": "",
    "IsRequired": "false",
    "IsPrimaryKey": "false",
    "DefaultValue": "",
    "Ordinal": 92
  },
  {
    "Name": "SAMPLE_DOSAGE_FULFILLED",
    "FieldType": "Text",
    "ObjectID": "38beb805-653a-4fed-a07a-7a5df459b2c8",
    "MaxLength": "50",
    "Scale": "",
    "IsRequired": "false",
    "IsPrimaryKey": "false",
    "DefaultValue": "",
    "Ordinal": 93
  },
  {
    "Name": "SHIPPING_METHOD",
    "FieldType": "Text",
    "ObjectID": "b9072207-7587-4c59-aa17-3419ad1ff03c",
    "MaxLength": "50",
    "Scale": "",
    "IsRequired": "false",
    "IsPrimaryKey": "false",
    "DefaultValue": "",
    "Ordinal": 94
  },
  {
    "Name": "SHIPPING_OPTION",
    "FieldType": "Text",
    "ObjectID": "f5217404-841b-4d69-9dd5-96798fd96704",
    "MaxLength": "50",
    "Scale": "",
    "IsRequired": "false",
    "IsPrimaryKey": "false",
    "DefaultValue": "",
    "Ordinal": 95
  },
  {
    "Name": "DISPOSITION_CD",
    "FieldType": "Text",
    "ObjectID": "a84a7bd7-1043-4395-b75c-291adb65f62b",
    "MaxLength": "50",
    "Scale": "",
    "IsRequired": "false",
    "IsPrimaryKey": "false",
    "DefaultValue": "",
    "Ordinal": 96
  },
  {
    "Name": "VENDOR_RESPONSE_ID",
    "FieldType": "Text",
    "ObjectID": "8db53637-b69b-4e25-b12f-425295d9e0bd",
    "MaxLength": "50",
    "Scale": "",
    "IsRequired": "false",
    "IsPrimaryKey": "false",
    "DefaultValue": "",
    "Ordinal": 97
  },
  {
    "Name": "LINE_OF_TRAVEL",
    "FieldType": "Text",
    "ObjectID": "165f987e-43a4-4cf0-9b37-e063920efcf1",
    "MaxLength": "50",
    "Scale": "",
    "IsRequired": "false",
    "IsPrimaryKey": "false",
    "DefaultValue": "",
    "Ordinal": 98
  },
  {
    "Name": "CARRIER_ROUTE_CODE",
    "FieldType": "Text",
    "ObjectID": "58a5070e-5788-41cc-82e5-79c0f226c497",
    "MaxLength": "50",
    "Scale": "",
    "IsRequired": "false",
    "IsPrimaryKey": "false",
    "DefaultValue": "",
    "Ordinal": 99
  },
  {
    "Name": "BAG_NUMBER",
    "FieldType": "Text",
    "ObjectID": "2d448165-72ae-4d35-a8f9-5d8579926c65",
    "MaxLength": "50",
    "Scale": "",
    "IsRequired": "false",
    "IsPrimaryKey": "false",
    "DefaultValue": "",
    "Ordinal": 100
  },
  {
    "Name": "PACKAGE_NUMBER",
    "FieldType": "Text",
    "ObjectID": "4e6c7672-c2f9-4a6b-b9ef-47961afd35b4",
    "MaxLength": "50",
    "Scale": "",
    "IsRequired": "false",
    "IsPrimaryKey": "false",
    "DefaultValue": "",
    "Ordinal": 101
  },
  {
    "Name": "PRESORT_GROUP",
    "FieldType": "Text",
    "ObjectID": "0d74663f-13c3-478e-a103-ef3a2919539b",
    "MaxLength": "50",
    "Scale": "",
    "IsRequired": "false",
    "IsPrimaryKey": "false",
    "DefaultValue": "",
    "Ordinal": 102
  },
  {
    "Name": "PREFERRED_PHONE",
    "FieldType": "Text",
    "ObjectID": "a874f0a8-6924-40a4-ab45-5fe800cf2cfa",
    "MaxLength": "50",
    "Scale": "",
    "IsRequired": "false",
    "IsPrimaryKey": "false",
    "DefaultValue": "",
    "Ordinal": 103
  },
  {
    "Name": "TIME_ZONE",
    "FieldType": "Text",
    "ObjectID": "649f2a3b-d9d4-4736-b232-8c6bd79fa068",
    "MaxLength": "50",
    "Scale": "",
    "IsRequired": "false",
    "IsPrimaryKey": "false",
    "DefaultValue": "",
    "Ordinal": 104
  },
  {
    "Name": "ACTUAL_SENT_DATE",
    "FieldType": "Date",
    "ObjectID": "ede0a177-723e-4d4e-8fef-6f6343deafdf",
    "MaxLength": "",
    "Scale": "",
    "IsRequired": "false",
    "IsPrimaryKey": "false",
    "DefaultValue": "",
    "Ordinal": 105
  },
  {
    "Name": "LINE_OF_TRAVEL_CODE",
    "FieldType": "Text",
    "ObjectID": "f828b87e-1e74-4077-8f49-49fa81aad4db",
    "MaxLength": "50",
    "Scale": "",
    "IsRequired": "false",
    "IsPrimaryKey": "false",
    "DefaultValue": "",
    "Ordinal": 106
  },
  {
    "Name": "PALLET_NUMBER",
    "FieldType": "Text",
    "ObjectID": "28999169-32c0-49f8-ae64-570f4bd78976",
    "MaxLength": "50",
    "Scale": "",
    "IsRequired": "false",
    "IsPrimaryKey": "false",
    "DefaultValue": "",
    "Ordinal": 107
  },
  {
    "Name": "DPBC",
    "FieldType": "Text",
    "ObjectID": "fcfc3862-ed4b-4f28-bc7b-cbdf8651a436",
    "MaxLength": "50",
    "Scale": "",
    "IsRequired": "false",
    "IsPrimaryKey": "false",
    "DefaultValue": "",
    "Ordinal": 108
  }
]