[
  {
    "Name": "FIRST_NAME",
    "FieldType": "Text",
    "ObjectID": "2107feb3-2130-4fe6-8868-fb2705f23726",
    "MaxLength": "50",
    "Scale": "0",
    "IsRequired": "false",
    "IsPrimaryKey": "false",
    "DefaultValue": "",
    "Ordinal": 0
  },
  {
    "Name": "MIDDLE_NAME",
    "FieldType": "Text",
    "ObjectID": "ee17af83-a886-43af-b010-9f0adced69bc",
    "MaxLength": "50",
    "Scale": "0",
    "IsRequired": "false",
    "IsPrimaryKey": "false",
    "DefaultValue": "",
    "Ordinal": 1
  },
  {
    "Name": "LAST_NAME",
    "FieldType": "Text",
    "ObjectID": "d53682b4-13c4-4f00-8a76-689acb64a11d",
    "MaxLength": "50",
    "Scale": "0",
    "IsRequired": "false",
    "IsPrimaryKey": "false",
    "DefaultValue": "",
    "Ordinal": 2
  },
  {
    "Name": "BRAND",
    "FieldType": "Text",
    "ObjectID": "5ba2e425-1ffc-474b-800c-b50e8b6a1987",
    "MaxLength": "50",
    "Scale": "0",
    "IsRequired": "false",
    "IsPrimaryKey": "false",
    "DefaultValue": "",
    "Ordinal": 3
  },
  {
    "Name": "PROGRAM_NAME",
    "FieldType": "Text",
    "ObjectID": "76531445-65e3-4be9-92b0-6319a3a88668",
    "MaxLength": "50",
    "Scale": "0",
    "IsRequired": "false",
    "IsPrimaryKey": "false",
    "DefaultValue": "",
    "Ordinal": 4
  },
  {
    "Name": "SERVICE_NAME",
    "FieldType": "Text",
    "ObjectID": "3e1c6db3-c280-487a-bc49-cd40d090503e",
    "MaxLength": "50",
    "Scale": "0",
    "IsRequired": "false",
    "IsPrimaryKey": "false",
    "DefaultValue": "",
    "Ordinal": 5
  },
  {
    "Name": "CHANNEL",
    "FieldType": "Text",
    "ObjectID": "b87977bf-74b6-4ae1-9a16-d649a8a70376",
    "MaxLength": "50",
    "Scale": "0",
    "IsRequired": "false",
    "IsPrimaryKey": "false",
    "DefaultValue": "",
    "Ordinal": 6
  },
  {
    "Name": "CONSENT_TYPE",
    "FieldType": "Text",
    "ObjectID": "f6cdd203-5c70-48d7-950b-5cc318a22eab",
    "MaxLength": "50",
    "Scale": "0",
    "IsRequired": "false",
    "IsPrimaryKey": "false",
    "DefaultValue": "",
    "Ordinal": 7
  },
  {
    "Name": "TRANSACTION_DATE",
    "FieldType": "Date",
    "ObjectID": "3c8c6b15-ccb4-4110-9d2a-c8e20e4e84ea",
    "MaxLength": "",
    "Scale": "0",
    "IsRequired": "false",
    "IsPrimaryKey": "false",
    "DefaultValue": "",
    "Ordinal": 8
  },
  {
    "Name": "EXPIRY_DATE",
    "FieldType": "Date",
    "ObjectID": "0bbfd192-a4e5-41e0-8888-05788dab40b6",
    "MaxLength": "",
    "Scale": "0",
    "IsRequired": "false",
    "IsPrimaryKey": "false",
    "DefaultValue": "",
    "Ordinal": 9
  },
  {
    "Name": "CONSENT_STATUS",
    "FieldType": "Text",
    "ObjectID": "448398b9-1ba1-4c26-a078-abd01444f5ba",
    "MaxLength": "50",
    "Scale": "0",
    "IsRequired": "false",
    "IsPrimaryKey": "false",
    "DefaultValue": "",
    "Ordinal": 10
  },
  {
    "Name": "SUFFIX",
    "FieldType": "Text",
    "ObjectID": "f0743287-63bf-461e-99df-33cfbc6d5cae",
    "MaxLength": "50",
    "Scale": "0",
    "IsRequired": "false",
    "IsPrimaryKey": "false",
    "DefaultValue": "",
    "Ordinal": 11
  },
  {
    "Name": "DOB",
    "FieldType": "Date",
    "ObjectID": "fcdac5b0-8ce8-43e1-8514-f8c789099d41",
    "MaxLength": "",
    "Scale": "0",
    "IsRequired": "false",
    "IsPrimaryKey": "false",
    "DefaultValue": "",
    "Ordinal": 12
  },
  {
    "Name": "SALUTATION",
    "FieldType": "Text",
    "ObjectID": "3ae1a8d5-db3f-4977-bc7c-b48d880aeb07",
    "MaxLength": "50",
    "Scale": "0",
    "IsRequired": "false",
    "IsPrimaryKey": "false",
    "DefaultValue": "",
    "Ordinal": 13
  },
  {
    "Name": "GENDER",
    "FieldType": "Text",
    "ObjectID": "a864c1a0-dab9-42ac-892a-f1a1f1e0106a",
    "MaxLength": "50",
    "Scale": "0",
    "IsRequired": "false",
    "IsPrimaryKey": "false",
    "DefaultValue": "",
    "Ordinal": 15
  },
  {
    "Name": "DIAGNOSED_DATE",
    "FieldType": "Date",
    "ObjectID": "d6c40f6f-e7a0-494c-ae9c-110727fb99c7",
    "MaxLength": "",
    "Scale": "0",
    "IsRequired": "false",
    "IsPrimaryKey": "false",
    "DefaultValue": "",
    "Ordinal": 16
  },
  {
    "Name": "ZIP",
    "FieldType": "Text",
    "ObjectID": "00c9b040-bc30-4b6e-9930-e41e68c81fd6",
    "MaxLength": "50",
    "Scale": "0",
    "IsRequired": "false",
    "IsPrimaryKey": "false",
    "DefaultValue": "",
    "Ordinal": 17
  },
  {
    "Name": "PHONE_NUMBER",
    "FieldType": "Phone",
    "ObjectID": "b3af53ee-422a-4382-8818-028ed7e56ad0",
    "MaxLength": "50",
    "Scale": "0",
    "IsRequired": "false",
    "IsPrimaryKey": "false",
    "DefaultValue": "",
    "Ordinal": 21
  },
  {
    "Name": "EMAIL",
    "FieldType": "EmailAddress",
    "ObjectID": "53581b86-de73-47fd-bf45-9a6d88afc9ec",
    "MaxLength": "254",
    "Scale": "0",
    "IsRequired": "false",
    "IsPrimaryKey": "false",
    "DefaultValue": "",
    "Ordinal": 22
  },
  {
    "Name": "PATIENT_COMPOSITE_KEY",
    "FieldType": "Text",
    "ObjectID": "817bfdf8-8c63-482e-82bc-ae496ee6ccef",
    "MaxLength": "50",
    "Scale": "0",
    "IsRequired": "false",
    "IsPrimaryKey": "false",
    "DefaultValue": "",
    "Ordinal": 25
  },
  {
    "Name": "UNSUBSCRIPTION_DATE",
    "FieldType": "Date",
    "ObjectID": "04da3c62-5720-48f4-8788-3819267dee69",
    "MaxLength": "",
    "Scale": "0",
    "IsRequired": "false",
    "IsPrimaryKey": "false",
    "DefaultValue": "",
    "Ordinal": 26
  },
  {
    "Name": "JOB_ID",
    "FieldType": "Text",
    "ObjectID": "c341cecc-586e-42a2-b5c8-7c56386bb40b",
    "MaxLength": "50",
    "Scale": "0",
    "IsRequired": "false",
    "IsPrimaryKey": "false",
    "DefaultValue": "",
    "Ordinal": 28
  },
  {
    "Name": "SOURCE_CODE",
    "FieldType": "Text",
    "ObjectID": "d9fd6905-8e6c-4883-8424-41dc6f15cddb",
    "MaxLength": "50",
    "Scale": "0",
    "IsRequired": "false",
    "IsPrimaryKey": "false",
    "DefaultValue": "",
    "Ordinal": 29
  },
  {
    "Name": "EMAIL_SENT",
    "FieldType": "Text",
    "ObjectID": "e702e92b-d749-4a81-9de9-413ae728d8ea",
    "MaxLength": "50",
    "Scale": "0",
    "IsRequired": "false",
    "IsPrimaryKey": "false",
    "DefaultValue": "",
    "Ordinal": 30
  },
  {
    "Name": "CUSTOMER_ID",
    "FieldType": "Text",
    "ObjectID": "6d69c964-d2c4-4a05-a45c-349138ec040d",
    "MaxLength": "50",
    "Scale": "0",
    "IsRequired": "true",
    "IsPrimaryKey": "false",
    "DefaultValue": "",
    "Ordinal": 31
  },
  {
    "Name": "EMAIL_SENT_DATE",
    "FieldType": "Date",
    "ObjectID": "144f0616-1aed-4fd5-b65e-eccff7b53902",
    "MaxLength": "",
    "Scale": "0",
    "IsRequired": "false",
    "IsPrimaryKey": "false",
    "DefaultValue": "",
    "Ordinal": 32
  },
  {
    "Name": "ADDRESS_LINE1",
    "FieldType": "Text",
    "ObjectID": "14f2d36b-566b-443f-b45d-46d0cc98308e",
    "MaxLength": "50",
    "Scale": "0",
    "IsRequired": "false",
    "IsPrimaryKey": "false",
    "DefaultValue": "",
    "Ordinal": 34
  },
  {
    "Name": "ADDRESS_LINE2",
    "FieldType": "Text",
    "ObjectID": "c451c1ff-c2de-40e4-a244-036c4154a9b5",
    "MaxLength": "50",
    "Scale": "0",
    "IsRequired": "false",
    "IsPrimaryKey": "false",
    "DefaultValue": "",
    "Ordinal": 35
  },
  {
    "Name": "ADDRESS_LINE3",
    "FieldType": "Text",
    "ObjectID": "02e45ee2-6930-4ec7-a40a-36ef017d450a",
    "MaxLength": "50",
    "Scale": "0",
    "IsRequired": "false",
    "IsPrimaryKey": "false",
    "DefaultValue": "",
    "Ordinal": 36
  },
  {
    "Name": "ADDRESS_LINE4",
    "FieldType": "Text",
    "ObjectID": "a174e22f-c789-40fc-b7fc-140a2b9e76ec",
    "MaxLength": "50",
    "Scale": "0",
    "IsRequired": "false",
    "IsPrimaryKey": "false",
    "DefaultValue": "",
    "Ordinal": 37
  },
  {
    "Name": "CITY",
    "FieldType": "Text",
    "ObjectID": "5247d4bc-f180-43a6-b35b-ad8d0e2155d9",
    "MaxLength": "50",
    "Scale": "0",
    "IsRequired": "false",
    "IsPrimaryKey": "false",
    "DefaultValue": "",
    "Ordinal": 38
  },
  {
    "Name": "STATE",
    "FieldType": "Text",
    "ObjectID": "abf2c380-7c7b-429e-9b09-f9ae97c844b5",
    "MaxLength": "50",
    "Scale": "0",
    "IsRequired": "false",
    "IsPrimaryKey": "false",
    "DefaultValue": "",
    "Ordinal": 39
  },
  {
    "Name": "ADDRESS_TYPE",
    "FieldType": "Text",
    "ObjectID": "01c06bb7-7e38-442b-a6bd-6f0274c209a4",
    "MaxLength": "50",
    "Scale": "0",
    "IsRequired": "false",
    "IsPrimaryKey": "false",
    "DefaultValue": "",
    "Ordinal": 40
  },
  {
    "Name": "ADDRESS_UPDATE_DATE",
    "FieldType": "Date",
    "ObjectID": "0a16c9c5-a9e1-4b13-a4b5-7c2d9ac723b1",
    "MaxLength": "",
    "Scale": "0",
    "IsRequired": "false",
    "IsPrimaryKey": "false",
    "DefaultValue": "",
    "Ordinal": 41
  },
  {
    "Name": "QUESTION_ID",
    "FieldType": "Text",
    "ObjectID": "e81f900d-8c83-4cbf-898d-b41985236109",
    "MaxLength": "50",
    "Scale": "0",
    "IsRequired": "false",
    "IsPrimaryKey": "false",
    "DefaultValue": "",
    "Ordinal": 48
  },
  {
    "Name": "ANSWER_ID",
    "FieldType": "Text",
    "ObjectID": "5b9b0e56-ebe1-4627-8bf0-058283bae578",
    "MaxLength": "50",
    "Scale": "0",
    "IsRequired": "false",
    "IsPrimaryKey": "false",
    "DefaultValue": "",
    "Ordinal": 49
  },
  {
    "Name": "ANSWER_TEXT",
    "FieldType": "Text",
    "ObjectID": "dc3e4653-6554-4b70-b5b4-2149e93f03d3",
    "MaxLength": "256",
    "Scale": "0",
    "IsRequired": "false",
    "IsPrimaryKey": "false",
    "DefaultValue": "",
    "Ordinal": 50
  },
  {
    "Name": "PROGRAM_CODE",
    "FieldType": "Text",
    "ObjectID": "5732595e-c45c-41f6-8a6c-5e5cadf3ee48",
    "MaxLength": "4000",
    "Scale": "0",
    "IsRequired": "false",
    "IsPrimaryKey": "false",
    "DefaultValue": "",
    "Ordinal": 51
  },
  {
    "Name": "CAMPAIGN_CODE",
    "FieldType": "Text",
    "ObjectID": "5f78d69d-d37a-4aa2-8ff5-7c79f009911e",
    "MaxLength": "4000",
    "Scale": "0",
    "IsRequired": "false",
    "IsPrimaryKey": "false",
    "DefaultValue": "",
    "Ordinal": 52
  },
  {
    "Name": "CAMPAIGN_KIT_CODE",
    "FieldType": "Text",
    "ObjectID": "e90e56f7-5304-4abe-b8b5-f6ece451691c",
    "MaxLength": "4000",
    "Scale": "0",
    "IsRequired": "false",
    "IsPrimaryKey": "false",
    "DefaultValue": "",
    "Ordinal": 54
  },
  {
    "Name": "OFFER_CODE",
    "FieldType": "Text",
    "ObjectID": "3d494a74-d8a8-44ae-883b-f81488bc3a07",
    "MaxLength": "4000",
    "Scale": "0",
    "IsRequired": "false",
    "IsPrimaryKey": "false",
    "DefaultValue": "",
    "Ordinal": 55
  },
  {
    "Name": "REMINDER_PRIMARY_KEY",
    "FieldType": "Text",
    "ObjectID": "f23162aa-5e4e-41ac-80af-b8fe01ff63e3",
    "MaxLength": "50",
    "Scale": "0",
    "IsRequired": "true",
    "IsPrimaryKey": "true",
    "DefaultValue": "",
    "Ordinal": 56
  },
  {
    "Name": "MASTERDE_PRIMARY_KEY",
    "FieldType": "Text",
    "ObjectID": "00ab6812-93e9-41fd-89dd-c85d6170c2f5",
    "MaxLength": "50",
    "Scale": "0",
    "IsRequired": "false",
    "IsPrimaryKey": "false",
    "DefaultValue": "",
    "Ordinal": 57
  },
  {
    "Name": "FREQUENCY",
    "FieldType": "Text",
    "ObjectID": "cc207359-63fd-436e-baf1-270632fd41a9",
    "MaxLength": "50",
    "Scale": "0",
    "IsRequired": "false",
    "IsPrimaryKey": "false",
    "DefaultValue": "",
    "Ordinal": 58
  },
  {
    "Name": "INITIAL_DATE",
    "FieldType": "Date",
    "ObjectID": "e9fc2c22-18ec-47a6-ba87-e6b530562294",
    "MaxLength": "",
    "Scale": "0",
    "IsRequired": "false",
    "IsPrimaryKey": "false",
    "DefaultValue": "",
    "Ordinal": 59
  },
  {
    "Name": "UPDATED_DATE",
    "FieldType": "Date",
    "ObjectID": "60305fa0-250d-407a-a665-d745fc00eae8",
    "MaxLength": "",
    "Scale": "0",
    "IsRequired": "false",
    "IsPrimaryKey": "false",
    "DefaultValue": "",
    "Ordinal": 60
  },
  {
    "Name": "INITIAL_REMINDER_DATE",
    "FieldType": "Date",
    "ObjectID": "0959601a-c134-4378-b81f-ac62dbd682f2",
    "MaxLength": "",
    "Scale": "0",
    "IsRequired": "false",
    "IsPrimaryKey": "false",
    "DefaultValue": "",
    "Ordinal": 61
  },
  {
    "Name": "EXTRACT_DATE",
    "FieldType": "Date",
    "ObjectID": "4010afaf-fc41-4a54-a4b3-e29e592fc54a",
    "MaxLength": "",
    "Scale": "0",
    "IsRequired": "false",
    "IsPrimaryKey": "false",
    "DefaultValue": "",
    "Ordinal": 62
  },
  {
    "Name": "ISCLOSED",
    "FieldType": "Text",
    "ObjectID": "7df129cb-1ac8-414c-adc9-f8edb4b61aa3",
    "MaxLength": "50",
    "Scale": "0",
    "IsRequired": "false",
    "IsPrimaryKey": "false",
    "DefaultValue": "",
    "Ordinal": 63
  },
  {
    "Name": "SMS_CONFIRMATION",
    "FieldType": "Text",
    "ObjectID": "c27f6db2-1c28-4f71-8a5c-c9e3b11a8041",
    "MaxLength": "",
    "Scale": "0",
    "IsRequired": "false",
    "IsPrimaryKey": "false",
    "DefaultValue": "",
    "Ordinal": 64
  },
  {
    "Name": "INFORMATIONAL_SMS",
    "FieldType": "Text",
    "ObjectID": "cc97ff60-7701-40f5-82b3-5d5812cf60ea",
    "MaxLength": "50",
    "Scale": "0",
    "IsRequired": "false",
    "IsPrimaryKey": "false",
    "DefaultValue": "",
    "Ordinal": 65
  }
]