{
  "$": {
    "xsi:type": "DataExtension"
  },
  "PartnerKey": [
    {
      "$": {
        "xsi:nil": "true"
      }
    }
  ],
  "ObjectID": [
    {
      "$": {
        "xsi:nil": "true"
      }
    }
  ],
  "CustomerKey": [
    "0acb8dfb-b5ba-4581-9cca-c31e08a2fee0"
  ],
  "Name": [
    "Form3 - Foodie 79187822"
  ]
}