[
  {
    "Name": "Lead ID",
    "FieldType": "Text",
    "ObjectID": "c09a6b3f-52e8-4580-bb0d-b44a87292105",
    "MaxLength": "64",
    "Scale": "",
    "IsRequired": "true",
    "IsPrimaryKey": "true",
    "DefaultValue": "",
    "Ordinal": 0
  },
  {
    "Name": "Lead Gen Form ID",
    "FieldType": "Text",
    "ObjectID": "6a64b0b4-bfc7-4859-996c-84d7862ed3d7",
    "MaxLength": "64",
    "Scale": "",
    "IsRequired": "false",
    "IsPrimaryKey": "false",
    "DefaultValue": "",
    "Ordinal": 1
  },
  {
    "Name": "Facebook Page ID",
    "FieldType": "Text",
    "ObjectID": "fa9faf9e-d73c-4a91-871b-bbb7a13ddd10",
    "MaxLength": "64",
    "Scale": "",
    "IsRequired": "false",
    "IsPrimaryKey": "false",
    "DefaultValue": "",
    "Ordinal": 2
  },
  {
    "Name": "Facebook Ad ID",
    "FieldType": "Text",
    "ObjectID": "8829f13e-1d9c-4360-8331-c9c8fbff06bc",
    "MaxLength": "64",
    "Scale": "",
    "IsRequired": "false",
    "IsPrimaryKey": "false",
    "DefaultValue": "",
    "Ordinal": 3
  },
  {
    "Name": "Facebook Ad Name",
    "FieldType": "Text",
    "ObjectID": "5632f363-bb03-4482-bdbc-120c6d9690fc",
    "MaxLength": "1024",
    "Scale": "",
    "IsRequired": "false",
    "IsPrimaryKey": "false",
    "DefaultValue": "",
    "Ordinal": 4
  },
  {
    "Name": "Facebook Ad Set ID",
    "FieldType": "Text",
    "ObjectID": "112ced58-a208-439f-abad-975fb5efb8c9",
    "MaxLength": "64",
    "Scale": "",
    "IsRequired": "false",
    "IsPrimaryKey": "false",
    "DefaultValue": "",
    "Ordinal": 5
  },
  {
    "Name": "Facebook Ad Set Name",
    "FieldType": "Text",
    "ObjectID": "7c77ebe7-9b2d-4283-b333-a419ef679556",
    "MaxLength": "1024",
    "Scale": "",
    "IsRequired": "false",
    "IsPrimaryKey": "false",
    "DefaultValue": "",
    "Ordinal": 6
  },
  {
    "Name": "Facebook Campaign ID",
    "FieldType": "Text",
    "ObjectID": "12bb4745-e936-4dc8-ae7e-5d7d46e977c0",
    "MaxLength": "64",
    "Scale": "",
    "IsRequired": "false",
    "IsPrimaryKey": "false",
    "DefaultValue": "",
    "Ordinal": 7
  },
  {
    "Name": "Facebook Campaign Name",
    "FieldType": "Text",
    "ObjectID": "51a530fa-f0fe-430e-b6dd-c0c9f24a8f65",
    "MaxLength": "1024",
    "Scale": "",
    "IsRequired": "false",
    "IsPrimaryKey": "false",
    "DefaultValue": "",
    "Ordinal": 8
  },
  {
    "Name": "Date Collected",
    "FieldType": "Date",
    "ObjectID": "51e87cf1-8807-4815-9083-6020db1204f3",
    "MaxLength": "",
    "Scale": "",
    "IsRequired": "false",
    "IsPrimaryKey": "false",
    "DefaultValue": "",
    "Ordinal": 9
  },
  {
    "Name": "email",
    "FieldType": "EmailAddress",
    "ObjectID": "5bd3aa39-e898-4f5c-99b3-10fa968c4a53",
    "MaxLength": "254",
    "Scale": "",
    "IsRequired": "false",
    "IsPrimaryKey": "false",
    "DefaultValue": "",
    "Ordinal": 10
  },
  {
    "Name": "full_name",
    "FieldType": "Text",
    "ObjectID": "168ccbf1-9b8a-4b6f-8b83-f39641c09b82",
    "MaxLength": "1024",
    "Scale": "",
    "IsRequired": "false",
    "IsPrimaryKey": "false",
    "DefaultValue": "",
    "Ordinal": 11
  }
]