{
  "$": {
    "xsi:type": "DataExtension"
  },
  "PartnerKey": [
    {
      "$": {
        "xsi:nil": "true"
      }
    }
  ],
  "ObjectID": [
    {
      "$": {
        "xsi:nil": "true"
      }
    }
  ],
  "CustomerKey": [
    "D4AB2FE3-77C3-4485-82F6-D48FC5E0233F"
  ],
  "Name": [
    "TESTsdededf"
  ]
}