[
  {
    "Name": "First Name",
    "FieldType": "Text",
    "ObjectID": "f17d02dc-222f-46de-b2fe-7b85326472dd",
    "MaxLength": "50",
    "Scale": "0",
    "IsRequired": "true",
    "IsPrimaryKey": "false",
    "DefaultValue": "",
    "Ordinal": 0
  }
]