[
  {
    "Name": "DISPOSITION_CD",
    "FieldType": "Text",
    "ObjectID": "434ebcd0-7f8d-46ff-8a02-6ba1114fc277",
    "MaxLength": "50",
    "Scale": "0",
    "IsRequired": "true",
    "IsPrimaryKey": "true",
    "DefaultValue": "",
    "Ordinal": 0
  },
  {
    "Name": "DISPOSITION_DESC",
    "FieldType": "Text",
    "ObjectID": "4060d582-0290-436f-97a9-33f0b85080c1",
    "MaxLength": "256",
    "Scale": "0",
    "IsRequired": "true",
    "IsPrimaryKey": "false",
    "DefaultValue": "",
    "Ordinal": 1
  },
  {
    "Name": "CHANNEL_CD",
    "FieldType": "Text",
    "ObjectID": "b63c8499-68b3-4370-a56e-60909f3fbbc8",
    "MaxLength": "50",
    "Scale": "0",
    "IsRequired": "true",
    "IsPrimaryKey": "false",
    "DefaultValue": "",
    "Ordinal": 2
  },
  {
    "Name": "CATEGORY",
    "FieldType": "Text",
    "ObjectID": "13e5808b-a65e-47be-a445-5e27eff5c6df",
    "MaxLength": "256",
    "Scale": "0",
    "IsRequired": "true",
    "IsPrimaryKey": "false",
    "DefaultValue": "",
    "Ordinal": 3
  },
  {
    "Name": "IMPRESSION_ENGAGEMENT",
    "FieldType": "Text",
    "ObjectID": "c0da801a-6d9f-4664-8252-d00ecb16c5d0",
    "MaxLength": "256",
    "Scale": "0",
    "IsRequired": "true",
    "IsPrimaryKey": "false",
    "DefaultValue": "",
    "Ordinal": 4
  },
  {
    "Name": "ZS_ENGAGER_SCORE",
    "FieldType": "Text",
    "ObjectID": "e2d794d8-097e-488d-a55e-b40283cf326d",
    "MaxLength": "50",
    "Scale": "0",
    "IsRequired": "true",
    "IsPrimaryKey": "false",
    "DefaultValue": "",
    "Ordinal": 5
  },
  {
    "Name": "isContactDisposition",
    "FieldType": "Boolean",
    "ObjectID": "1775b2a0-ca01-4971-b57b-9f53111b7f76",
    "MaxLength": "",
    "Scale": "0",
    "IsRequired": "true",
    "IsPrimaryKey": "false",
    "DefaultValue": "False",
    "Ordinal": 6
  }
]