[
  {
    "Name": "ID",
    "FieldType": "Number",
    "ObjectID": "cee25874-76fa-e711-9ed2-38eaa7158965",
    "MaxLength": "",
    "Scale": "0",
    "IsRequired": "true",
    "IsPrimaryKey": "true",
    "DefaultValue": "",
    "Ordinal": 1
  },
  {
    "Name": "Category",
    "FieldType": "Text",
    "ObjectID": "cfe25874-76fa-e711-9ed2-38eaa7158965",
    "MaxLength": "200",
    "Scale": "",
    "IsRequired": "true",
    "IsPrimaryKey": "true",
    "DefaultValue": "",
    "Ordinal": 2
  },
  {
    "Name": "Name",
    "FieldType": "Text",
    "ObjectID": "d0e25874-76fa-e711-9ed2-38eaa7158965",
    "MaxLength": "200",
    "Scale": "",
    "IsRequired": "true",
    "IsPrimaryKey": "false",
    "DefaultValue": "",
    "Ordinal": 3
  },
  {
    "Name": "Value",
    "FieldType": "Text",
    "ObjectID": "d1e25874-76fa-e711-9ed2-38eaa7158965",
    "MaxLength": "500",
    "Scale": "",
    "IsRequired": "true",
    "IsPrimaryKey": "false",
    "DefaultValue": "",
    "Ordinal": 4
  }
]