[
  {
    "Name": "Name",
    "FieldType": "Text",
    "ObjectID": "f8cf326b-2409-4017-a1af-18adebd71266",
    "MaxLength": "100",
    "Scale": "0",
    "IsRequired": "false",
    "IsPrimaryKey": "false",
    "DefaultValue": "",
    "Ordinal": 0
  },
  {
    "Name": "Team",
    "FieldType": "Text",
    "ObjectID": "bbc5f9b1-ffb8-4b98-a311-01d0d76bd9de",
    "MaxLength": "50",
    "Scale": "0",
    "IsRequired": "false",
    "IsPrimaryKey": "false",
    "DefaultValue": "",
    "Ordinal": 1
  },
  {
    "Name": "Role",
    "FieldType": "Text",
    "ObjectID": "5124eb35-5521-4711-b1a9-db15ed4431c2",
    "MaxLength": "50",
    "Scale": "0",
    "IsRequired": "false",
    "IsPrimaryKey": "false",
    "DefaultValue": "",
    "Ordinal": 2
  },
  {
    "Name": "Location",
    "FieldType": "Text",
    "ObjectID": "11ac15af-a7a1-4582-be7d-9cf2841d1fad",
    "MaxLength": "100",
    "Scale": "0",
    "IsRequired": "false",
    "IsPrimaryKey": "false",
    "DefaultValue": "",
    "Ordinal": 3
  },
  {
    "Name": "Email Id",
    "FieldType": "EmailAddress",
    "ObjectID": "6d8f872b-531b-4be0-b08d-5f038bb69a0e",
    "MaxLength": "254",
    "Scale": "0",
    "IsRequired": "true",
    "IsPrimaryKey": "true",
    "DefaultValue": "",
    "Ordinal": 4
  },
  {
    "Name": "Key Modules",
    "FieldType": "Text",
    "ObjectID": "b65ca3d1-0c9c-4c00-bbc2-dcbd5f06f8cb",
    "MaxLength": "500",
    "Scale": "0",
    "IsRequired": "false",
    "IsPrimaryKey": "false",
    "DefaultValue": "",
    "Ordinal": 5
  },
  {
    "Name": "para 1",
    "FieldType": "Text",
    "ObjectID": "6f9432ee-5659-4d1b-9c20-18f56f502b5f",
    "MaxLength": "1000",
    "Scale": "0",
    "IsRequired": "false",
    "IsPrimaryKey": "false",
    "DefaultValue": "",
    "Ordinal": 6
  },
  {
    "Name": "para 2",
    "FieldType": "Text",
    "ObjectID": "1f08599e-5381-4bfe-aeea-4b098529938d",
    "MaxLength": "1000",
    "Scale": "0",
    "IsRequired": "false",
    "IsPrimaryKey": "false",
    "DefaultValue": "",
    "Ordinal": 7
  },
  {
    "Name": "para 3",
    "FieldType": "Text",
    "ObjectID": "5f86b9ed-7531-4547-9346-6b6227380707",
    "MaxLength": "250",
    "Scale": "0",
    "IsRequired": "false",
    "IsPrimaryKey": "false",
    "DefaultValue": "",
    "Ordinal": 8
  }
]