{
  "$": {
    "xsi:type": "DataExtension"
  },
  "PartnerKey": [
    {
      "$": {
        "xsi:nil": "true"
      }
    }
  ],
  "ObjectID": [
    {
      "$": {
        "xsi:nil": "true"
      }
    }
  ],
  "CustomerKey": [
    "B800930F-E7D9-4BDF-B039-BEAA7EBD876D"
  ],
  "Name": [
    "Sample_Vani"
  ]
}