[
  {
    "Name": "Name",
    "FieldType": "Text",
    "ObjectID": "50ab31bf-4a4c-4717-8d8d-dcf32fd5ce5d",
    "MaxLength": "100",
    "Scale": "",
    "IsRequired": "false",
    "IsPrimaryKey": "false",
    "DefaultValue": "",
    "Ordinal": 0
  },
  {
    "Name": "Email Address",
    "FieldType": "EmailAddress",
    "ObjectID": "2fe9a774-3351-488d-9da9-671123a476b7",
    "MaxLength": "254",
    "Scale": "0",
    "IsRequired": "false",
    "IsPrimaryKey": "false",
    "DefaultValue": "",
    "Ordinal": 1
  },
  {
    "Name": "Email Sent Time",
    "FieldType": "Date",
    "ObjectID": "f2d5b7ec-139b-4a1d-ae54-77280a9eed75",
    "MaxLength": "",
    "Scale": "0",
    "IsRequired": "false",
    "IsPrimaryKey": "false",
    "DefaultValue": "",
    "Ordinal": 2
  }
]