[
  {
    "Name": "_ContactID",
    "FieldType": "Text",
    "ObjectID": "3051cb30-5b17-48ab-9897-1b7f34cb9001",
    "MaxLength": "",
    "Scale": "",
    "IsRequired": "true",
    "IsPrimaryKey": "false",
    "DefaultValue": "",
    "Ordinal": 1
  },
  {
    "Name": "_MobileNumber",
    "FieldType": "Text",
    "ObjectID": "18ba4a67-9ab3-4d54-8e13-2fbf2ba4f5b1",
    "MaxLength": "15",
    "Scale": "",
    "IsRequired": "true",
    "IsPrimaryKey": "false",
    "DefaultValue": "",
    "Ordinal": 2
  },
  {
    "Name": "_Status",
    "FieldType": "Text",
    "ObjectID": "3c8e6f6c-6f29-44f7-ad31-92104adb712b",
    "MaxLength": "",
    "Scale": "",
    "IsRequired": "false",
    "IsPrimaryKey": "false",
    "DefaultValue": "",
    "Ordinal": 3
  },
  {
    "Name": "_Source",
    "FieldType": "Text",
    "ObjectID": "fd582a91-d1d4-4913-a99a-a3f36548c771",
    "MaxLength": "",
    "Scale": "",
    "IsRequired": "false",
    "IsPrimaryKey": "false",
    "DefaultValue": "",
    "Ordinal": 4
  },
  {
    "Name": "_SourceObjectId",
    "FieldType": "Text",
    "ObjectID": "6efc2558-34e2-407b-ab41-754bf47e3859",
    "MaxLength": "200",
    "Scale": "",
    "IsRequired": "false",
    "IsPrimaryKey": "false",
    "DefaultValue": "",
    "Ordinal": 5
  },
  {
    "Name": "_Priority",
    "FieldType": "Text",
    "ObjectID": "e81f827b-5d82-4449-b7b8-4b747002d807",
    "MaxLength": "",
    "Scale": "",
    "IsRequired": "false",
    "IsPrimaryKey": "false",
    "DefaultValue": "1",
    "Ordinal": 6
  },
  {
    "Name": "_Channel",
    "FieldType": "Text",
    "ObjectID": "429f1411-3836-4cfa-ac34-f875141268db",
    "MaxLength": "20",
    "Scale": "",
    "IsRequired": "false",
    "IsPrimaryKey": "false",
    "DefaultValue": "",
    "Ordinal": 7
  },
  {
    "Name": "_CarrierID",
    "FieldType": "Text",
    "ObjectID": "341a2333-4498-4bea-8692-bc2efc80bdc5",
    "MaxLength": "",
    "Scale": "",
    "IsRequired": "true",
    "IsPrimaryKey": "false",
    "DefaultValue": "0",
    "Ordinal": 8
  },
  {
    "Name": "_CountryCode",
    "FieldType": "Text",
    "ObjectID": "1080d2fc-063b-459d-b482-317e3717b0a1",
    "MaxLength": "2",
    "Scale": "",
    "IsRequired": "true",
    "IsPrimaryKey": "false",
    "DefaultValue": "",
    "Ordinal": 9
  },
  {
    "Name": "_CreatedDate",
    "FieldType": "Date",
    "ObjectID": "d8614c54-a113-46d1-8e36-642fc6d535ba",
    "MaxLength": "",
    "Scale": "",
    "IsRequired": "true",
    "IsPrimaryKey": "false",
    "DefaultValue": "GETDATE()",
    "Ordinal": 10
  },
  {
    "Name": "_CreatedBy",
    "FieldType": "Text",
    "ObjectID": "986ec0ea-42e6-4ae8-a3a7-67a80a8541a3",
    "MaxLength": "",
    "Scale": "",
    "IsRequired": "false",
    "IsPrimaryKey": "false",
    "DefaultValue": "",
    "Ordinal": 11
  },
  {
    "Name": "_ModifiedDate",
    "FieldType": "Date",
    "ObjectID": "716e3efd-8302-43ad-bfae-b78b1153073c",
    "MaxLength": "",
    "Scale": "",
    "IsRequired": "true",
    "IsPrimaryKey": "false",
    "DefaultValue": "GETDATE()",
    "Ordinal": 12
  },
  {
    "Name": "_ModifiedBy",
    "FieldType": "Text",
    "ObjectID": "85007eb9-4592-4a09-a787-876f0f9f309c",
    "MaxLength": "",
    "Scale": "",
    "IsRequired": "false",
    "IsPrimaryKey": "false",
    "DefaultValue": "",
    "Ordinal": 13
  },
  {
    "Name": "_City",
    "FieldType": "Text",
    "ObjectID": "228d8b84-8500-4991-a39a-fbc8656252be",
    "MaxLength": "200",
    "Scale": "",
    "IsRequired": "false",
    "IsPrimaryKey": "false",
    "DefaultValue": "",
    "Ordinal": 14
  },
  {
    "Name": "_State",
    "FieldType": "Text",
    "ObjectID": "2a53fa1d-2d73-470b-8f79-5a6fa88ffd46",
    "MaxLength": "200",
    "Scale": "",
    "IsRequired": "false",
    "IsPrimaryKey": "false",
    "DefaultValue": "",
    "Ordinal": 15
  },
  {
    "Name": "_ZipCode",
    "FieldType": "Text",
    "ObjectID": "9d473a80-2eac-4114-b958-747bf993e9cc",
    "MaxLength": "20",
    "Scale": "",
    "IsRequired": "false",
    "IsPrimaryKey": "false",
    "DefaultValue": "",
    "Ordinal": 16
  },
  {
    "Name": "_FirstName",
    "FieldType": "Text",
    "ObjectID": "850c51a2-28cd-4991-acb5-8922f15929ab",
    "MaxLength": "100",
    "Scale": "",
    "IsRequired": "false",
    "IsPrimaryKey": "false",
    "DefaultValue": "",
    "Ordinal": 17
  },
  {
    "Name": "_LastName",
    "FieldType": "Text",
    "ObjectID": "0f916597-dad2-4339-a134-f1c786abe333",
    "MaxLength": "100",
    "Scale": "",
    "IsRequired": "false",
    "IsPrimaryKey": "false",
    "DefaultValue": "",
    "Ordinal": 18
  },
  {
    "Name": "_UTCOffset",
    "FieldType": "Decimal",
    "ObjectID": "51f1aae4-762f-4215-a594-cf54a7387d24",
    "MaxLength": "4",
    "Scale": "2",
    "IsRequired": "false",
    "IsPrimaryKey": "false",
    "DefaultValue": "0",
    "Ordinal": 19
  },
  {
    "Name": "_IsHonorDST",
    "FieldType": "Boolean",
    "ObjectID": "43c265c7-9b5b-4653-9fa5-5a69118b0209",
    "MaxLength": "",
    "Scale": "",
    "IsRequired": "false",
    "IsPrimaryKey": "false",
    "DefaultValue": "false",
    "Ordinal": 20
  }
]