{
  "$": {
    "xsi:type": "DataExtension"
  },
  "PartnerKey": [
    {
      "$": {
        "xsi:nil": "true"
      }
    }
  ],
  "ObjectID": [
    {
      "$": {
        "xsi:nil": "true"
      }
    }
  ],
  "CustomerKey": [
    "9FE8069B-9118-4EF7-92F4-7CC251FBD026"
  ],
  "Name": [
    "PostManTesting"
  ]
}