{
  "$": {
    "xsi:type": "DataExtension"
  },
  "PartnerKey": [
    {
      "$": {
        "xsi:nil": "true"
      }
    }
  ],
  "ObjectID": [
    {
      "$": {
        "xsi:nil": "true"
      }
    }
  ],
  "CustomerKey": [
    "HCP_CONTROL_CONTACT_DE"
  ],
  "Name": [
    "HCP_CONTROL_CONTACT_DE"
  ]
}