[
  {
    "Name": "First Name",
    "FieldType": "Text",
    "ObjectID": "6cb7625d-b0d7-4e5d-b5b6-59938b8beadd",
    "MaxLength": "50",
    "Scale": "",
    "IsRequired": "false",
    "IsPrimaryKey": "false",
    "DefaultValue": "",
    "Ordinal": 0
  },
  {
    "Name": "Last Name",
    "FieldType": "Text",
    "ObjectID": "efffa21d-2a83-4231-b58c-ed90d6918774",
    "MaxLength": "50",
    "Scale": "",
    "IsRequired": "false",
    "IsPrimaryKey": "false",
    "DefaultValue": "",
    "Ordinal": 1
  },
  {
    "Name": "Phone",
    "FieldType": "Phone",
    "ObjectID": "58feb0ee-fcef-4dbb-8b57-4e400dba93b1",
    "MaxLength": "50",
    "Scale": "",
    "IsRequired": "false",
    "IsPrimaryKey": "false",
    "DefaultValue": "",
    "Ordinal": 2
  },
  {
    "Name": "Email",
    "FieldType": "EmailAddress",
    "ObjectID": "b1dd8317-1c4a-4763-972f-0bbcf6efd91c",
    "MaxLength": "254",
    "Scale": "",
    "IsRequired": "true",
    "IsPrimaryKey": "true",
    "DefaultValue": "",
    "Ordinal": 3
  },
  {
    "Name": "Address",
    "FieldType": "Text",
    "ObjectID": "ded185d6-d674-4cbb-9039-2f85b594ba1b",
    "MaxLength": "50",
    "Scale": "",
    "IsRequired": "false",
    "IsPrimaryKey": "false",
    "DefaultValue": "",
    "Ordinal": 4
  },
  {
    "Name": "Status",
    "FieldType": "Text",
    "ObjectID": "bde70262-33d4-4c6e-aa8c-c0c3e85b942d",
    "MaxLength": "50",
    "Scale": "",
    "IsRequired": "false",
    "IsPrimaryKey": "false",
    "DefaultValue": "",
    "Ordinal": 5
  }
]