[
  {
    "Name": "ID",
    "FieldType": "Text",
    "ObjectID": "a1db335a-7ec9-48f9-b8b8-e05dc4380dfd",
    "MaxLength": "50",
    "Scale": "0",
    "IsRequired": "true",
    "IsPrimaryKey": "true",
    "DefaultValue": "",
    "Ordinal": 0
  },
  {
    "Name": "CMA_ID",
    "FieldType": "Text",
    "ObjectID": "242e8d6c-625d-4a35-af74-d2f018355449",
    "MaxLength": "50",
    "Scale": "0",
    "IsRequired": "false",
    "IsPrimaryKey": "false",
    "DefaultValue": "",
    "Ordinal": 1
  },
  {
    "Name": "ADDRESS_ID",
    "FieldType": "Text",
    "ObjectID": "365c5c2c-2c34-4812-bbde-744d8b0e365d",
    "MaxLength": "50",
    "Scale": "0",
    "IsRequired": "false",
    "IsPrimaryKey": "false",
    "DefaultValue": "",
    "Ordinal": 2
  },
  {
    "Name": "CONTACT_ID",
    "FieldType": "Text",
    "ObjectID": "fe14f53a-809d-4b81-bde9-b1169936cc07",
    "MaxLength": "50",
    "Scale": "0",
    "IsRequired": "false",
    "IsPrimaryKey": "false",
    "DefaultValue": "",
    "Ordinal": 3
  },
  {
    "Name": "PROF_ADDRESS_ID",
    "FieldType": "Text",
    "ObjectID": "f05c3ffc-c0f5-4d04-b0d6-c9166f5ba868",
    "MaxLength": "50",
    "Scale": "0",
    "IsRequired": "false",
    "IsPrimaryKey": "false",
    "DefaultValue": "",
    "Ordinal": 4
  },
  {
    "Name": "PRIMARY_KEYCODE",
    "FieldType": "Text",
    "ObjectID": "4e46f49f-cd31-4146-8828-f997609bedd0",
    "MaxLength": "50",
    "Scale": "0",
    "IsRequired": "false",
    "IsPrimaryKey": "false",
    "DefaultValue": "",
    "Ordinal": 5
  },
  {
    "Name": "ME_NUMBER",
    "FieldType": "Text",
    "ObjectID": "443a137b-e3a6-4b3b-9706-0127288b0a77",
    "MaxLength": "50",
    "Scale": "0",
    "IsRequired": "false",
    "IsPrimaryKey": "false",
    "DefaultValue": "",
    "Ordinal": 6
  },
  {
    "Name": "NPI_NUMBER",
    "FieldType": "Text",
    "ObjectID": "4d29b90e-8e94-4844-a351-ce9639a6a199",
    "MaxLength": "50",
    "Scale": "0",
    "IsRequired": "false",
    "IsPrimaryKey": "false",
    "DefaultValue": "",
    "Ordinal": 7
  },
  {
    "Name": "STATE_LIC_NUMBER",
    "FieldType": "Text",
    "ObjectID": "d702def5-4330-4b2b-9a75-f53f0f193bcd",
    "MaxLength": "50",
    "Scale": "0",
    "IsRequired": "false",
    "IsPrimaryKey": "false",
    "DefaultValue": "",
    "Ordinal": 8
  },
  {
    "Name": "STATE_LIC_NUMBER_STATE",
    "FieldType": "Text",
    "ObjectID": "b7116c08-7f90-472a-8dff-82b6d56c670d",
    "MaxLength": "50",
    "Scale": "0",
    "IsRequired": "false",
    "IsPrimaryKey": "false",
    "DefaultValue": "",
    "Ordinal": 9
  },
  {
    "Name": "STATE_LIC_EXPIRATION_DATE",
    "FieldType": "Text",
    "ObjectID": "1d30c1a1-d247-4b5d-9357-2b95f1d0a2be",
    "MaxLength": "",
    "Scale": "0",
    "IsRequired": "false",
    "IsPrimaryKey": "false",
    "DefaultValue": "",
    "Ordinal": 10
  },
  {
    "Name": "SALUTATION",
    "FieldType": "Text",
    "ObjectID": "6a0ab8cd-361f-4e2c-9c4a-f73bb73c779e",
    "MaxLength": "50",
    "Scale": "0",
    "IsRequired": "false",
    "IsPrimaryKey": "false",
    "DefaultValue": "",
    "Ordinal": 11
  },
  {
    "Name": "FIRST_NAME",
    "FieldType": "Text",
    "ObjectID": "b098db0f-8e37-439a-86cf-df565d91d6ad",
    "MaxLength": "50",
    "Scale": "0",
    "IsRequired": "false",
    "IsPrimaryKey": "false",
    "DefaultValue": "",
    "Ordinal": 12
  },
  {
    "Name": "MIDDLE_NAME",
    "FieldType": "Text",
    "ObjectID": "1a282d2b-d7c7-4cd1-8681-cfa124894e73",
    "MaxLength": "50",
    "Scale": "0",
    "IsRequired": "false",
    "IsPrimaryKey": "false",
    "DefaultValue": "",
    "Ordinal": 13
  },
  {
    "Name": "LAST_NAME",
    "FieldType": "Text",
    "ObjectID": "13f1a478-ea16-4f5e-a5dd-d2557840dc55",
    "MaxLength": "50",
    "Scale": "0",
    "IsRequired": "false",
    "IsPrimaryKey": "false",
    "DefaultValue": "",
    "Ordinal": 14
  },
  {
    "Name": "SUFFIX",
    "FieldType": "Text",
    "ObjectID": "d1be7952-eebb-4759-a3d7-0cb0ffc068c1",
    "MaxLength": "50",
    "Scale": "0",
    "IsRequired": "false",
    "IsPrimaryKey": "false",
    "DefaultValue": "",
    "Ordinal": 15
  },
  {
    "Name": "TITLE",
    "FieldType": "Text",
    "ObjectID": "2fd9d102-fd34-4657-a963-1cc2e8efea0d",
    "MaxLength": "50",
    "Scale": "0",
    "IsRequired": "false",
    "IsPrimaryKey": "false",
    "DefaultValue": "",
    "Ordinal": 16
  },
  {
    "Name": "FREEFORM_NAME",
    "FieldType": "Text",
    "ObjectID": "8bad8be6-cb72-4b3f-993e-75cf87315756",
    "MaxLength": "50",
    "Scale": "0",
    "IsRequired": "false",
    "IsPrimaryKey": "false",
    "DefaultValue": "",
    "Ordinal": 17
  },
  {
    "Name": "ADDRESS1",
    "FieldType": "Text",
    "ObjectID": "8c1d375d-0f9e-4f9e-97c9-1f758e0459ab",
    "MaxLength": "50",
    "Scale": "0",
    "IsRequired": "false",
    "IsPrimaryKey": "false",
    "DefaultValue": "",
    "Ordinal": 18
  },
  {
    "Name": "ADDRESS2",
    "FieldType": "Text",
    "ObjectID": "fe34d821-fe07-429f-b03e-d103ba6b39cf",
    "MaxLength": "50",
    "Scale": "0",
    "IsRequired": "false",
    "IsPrimaryKey": "false",
    "DefaultValue": "",
    "Ordinal": 19
  },
  {
    "Name": "ADDRESS3",
    "FieldType": "Text",
    "ObjectID": "73b2f0a3-ec7f-4015-8bfb-bc56dabfc138",
    "MaxLength": "50",
    "Scale": "0",
    "IsRequired": "false",
    "IsPrimaryKey": "false",
    "DefaultValue": "",
    "Ordinal": 20
  },
  {
    "Name": "CITY",
    "FieldType": "Text",
    "ObjectID": "1cec747a-542f-4d6a-aadf-f7651d62d6bb",
    "MaxLength": "50",
    "Scale": "0",
    "IsRequired": "false",
    "IsPrimaryKey": "false",
    "DefaultValue": "",
    "Ordinal": 21
  },
  {
    "Name": "STATE_CD",
    "FieldType": "Text",
    "ObjectID": "c2734108-5e7c-4cd5-9ffb-235887a22b5b",
    "MaxLength": "50",
    "Scale": "0",
    "IsRequired": "false",
    "IsPrimaryKey": "false",
    "DefaultValue": "",
    "Ordinal": 22
  },
  {
    "Name": "ZIP",
    "FieldType": "Text",
    "ObjectID": "09393145-6063-4b38-8b13-a8a09db030c7",
    "MaxLength": "50",
    "Scale": "0",
    "IsRequired": "false",
    "IsPrimaryKey": "false",
    "DefaultValue": "",
    "Ordinal": 23
  },
  {
    "Name": "ZIP_4",
    "FieldType": "Text",
    "ObjectID": "95375003-244a-4533-9953-26896fdecc70",
    "MaxLength": "50",
    "Scale": "0",
    "IsRequired": "false",
    "IsPrimaryKey": "false",
    "DefaultValue": "",
    "Ordinal": 24
  },
  {
    "Name": "COUNTY",
    "FieldType": "Text",
    "ObjectID": "9f618f6d-a056-4feb-8ebf-856651aef8a6",
    "MaxLength": "50",
    "Scale": "0",
    "IsRequired": "false",
    "IsPrimaryKey": "false",
    "DefaultValue": "",
    "Ordinal": 25
  },
  {
    "Name": "COUNTRY",
    "FieldType": "Text",
    "ObjectID": "fc80cdac-1019-42e7-9955-14567c5cc11a",
    "MaxLength": "50",
    "Scale": "0",
    "IsRequired": "false",
    "IsPrimaryKey": "false",
    "DefaultValue": "",
    "Ordinal": 26
  },
  {
    "Name": "PHONE_NUMBER",
    "FieldType": "Text",
    "ObjectID": "5a4d05b8-a6f6-408e-8ed9-075b7db22efd",
    "MaxLength": "50",
    "Scale": "0",
    "IsRequired": "false",
    "IsPrimaryKey": "false",
    "DefaultValue": "",
    "Ordinal": 27
  },
  {
    "Name": "SMS",
    "FieldType": "Text",
    "ObjectID": "40bb6c28-83e2-4e7a-944f-fbf1eaf9ec6d",
    "MaxLength": "50",
    "Scale": "0",
    "IsRequired": "false",
    "IsPrimaryKey": "false",
    "DefaultValue": "",
    "Ordinal": 28
  },
  {
    "Name": "FAX_NUMBER",
    "FieldType": "Text",
    "ObjectID": "4642e3fe-04a8-435b-9b0b-4c8e60a0116e",
    "MaxLength": "50",
    "Scale": "0",
    "IsRequired": "false",
    "IsPrimaryKey": "false",
    "DefaultValue": "",
    "Ordinal": 29
  },
  {
    "Name": "EMAIL_ADDRESS",
    "FieldType": "Text",
    "ObjectID": "e67b0fdd-fab7-4976-80d9-17c4c3ecf4f0",
    "MaxLength": "50",
    "Scale": "0",
    "IsRequired": "false",
    "IsPrimaryKey": "false",
    "DefaultValue": "",
    "Ordinal": 30
  },
  {
    "Name": "HTML_PLAINTEXT_AOL",
    "FieldType": "Text",
    "ObjectID": "2efc819c-b332-415a-9ae2-5d2485ea972f",
    "MaxLength": "50",
    "Scale": "0",
    "IsRequired": "false",
    "IsPrimaryKey": "false",
    "DefaultValue": "",
    "Ordinal": 31
  },
  {
    "Name": "GENDER",
    "FieldType": "Text",
    "ObjectID": "3220182d-f5e9-4e2f-b4bc-838c47bbe441",
    "MaxLength": "50",
    "Scale": "0",
    "IsRequired": "false",
    "IsPrimaryKey": "false",
    "DefaultValue": "",
    "Ordinal": 32
  },
  {
    "Name": "SALES_FORCE_TARGET_IND",
    "FieldType": "Text",
    "ObjectID": "ddc18605-1563-47f0-a2e4-a5c5d5669f8b",
    "MaxLength": "50",
    "Scale": "0",
    "IsRequired": "false",
    "IsPrimaryKey": "false",
    "DefaultValue": "",
    "Ordinal": 33
  },
  {
    "Name": "PRIMARY_SPECIALTY",
    "FieldType": "Text",
    "ObjectID": "76d88280-688a-47ea-a7bb-9e1753e46943",
    "MaxLength": "50",
    "Scale": "0",
    "IsRequired": "false",
    "IsPrimaryKey": "false",
    "DefaultValue": "",
    "Ordinal": 34
  },
  {
    "Name": "TERRITORY_ID",
    "FieldType": "Text",
    "ObjectID": "835e7814-3b2b-41f5-bdb8-631f49879aa9",
    "MaxLength": "50",
    "Scale": "0",
    "IsRequired": "false",
    "IsPrimaryKey": "false",
    "DefaultValue": "",
    "Ordinal": 35
  },
  {
    "Name": "PRACTICE_NAME",
    "FieldType": "Text",
    "ObjectID": "dd1d1038-96a2-47e2-bc4c-f2e5b5f2c76f",
    "MaxLength": "50",
    "Scale": "0",
    "IsRequired": "false",
    "IsPrimaryKey": "false",
    "DefaultValue": "",
    "Ordinal": 36
  },
  {
    "Name": "SEGMENT_CODE",
    "FieldType": "Text",
    "ObjectID": "3ebd6bf0-c316-460f-8f92-dba655413488",
    "MaxLength": "50",
    "Scale": "0",
    "IsRequired": "false",
    "IsPrimaryKey": "false",
    "DefaultValue": "",
    "Ordinal": 37
  },
  {
    "Name": "CAMPAIGN_CODE",
    "FieldType": "Text",
    "ObjectID": "19484bf7-dc20-4e92-836a-3e2ceb78b35f",
    "MaxLength": "50",
    "Scale": "0",
    "IsRequired": "false",
    "IsPrimaryKey": "false",
    "DefaultValue": "",
    "Ordinal": 38
  },
  {
    "Name": "CAMPAIGN_CODE_DESC",
    "FieldType": "Text",
    "ObjectID": "a56d9195-1cf8-43aa-90bf-0a29eb68e3c5",
    "MaxLength": "50",
    "Scale": "0",
    "IsRequired": "false",
    "IsPrimaryKey": "false",
    "DefaultValue": "",
    "Ordinal": 39
  },
  {
    "Name": "OFFER_CODE",
    "FieldType": "Text",
    "ObjectID": "06d40e8b-5793-4608-9245-66884dbb52ed",
    "MaxLength": "50",
    "Scale": "0",
    "IsRequired": "false",
    "IsPrimaryKey": "false",
    "DefaultValue": "",
    "Ordinal": 40
  },
  {
    "Name": "OFFER_CODE_DESC",
    "FieldType": "Text",
    "ObjectID": "24eadd5a-fb8d-4197-a5a3-59b9a718e443",
    "MaxLength": "50",
    "Scale": "0",
    "IsRequired": "false",
    "IsPrimaryKey": "false",
    "DefaultValue": "",
    "Ordinal": 41
  },
  {
    "Name": "TREATMENT_CODE",
    "FieldType": "Text",
    "ObjectID": "67a096ec-4a9f-4f14-a34e-e4ca82dcddad",
    "MaxLength": "50",
    "Scale": "0",
    "IsRequired": "false",
    "IsPrimaryKey": "false",
    "DefaultValue": "",
    "Ordinal": 42
  },
  {
    "Name": "TREATMENT_CODE_DESC",
    "FieldType": "Text",
    "ObjectID": "6c6c8ac5-531b-44ed-bf6a-6232728b15a0",
    "MaxLength": "50",
    "Scale": "0",
    "IsRequired": "false",
    "IsPrimaryKey": "false",
    "DefaultValue": "",
    "Ordinal": 43
  },
  {
    "Name": "CELL_CODE",
    "FieldType": "Text",
    "ObjectID": "b5fda148-03cc-46fc-ab42-7976311964d9",
    "MaxLength": "50",
    "Scale": "0",
    "IsRequired": "false",
    "IsPrimaryKey": "false",
    "DefaultValue": "",
    "Ordinal": 44
  },
  {
    "Name": "CELL_CODE_DESC",
    "FieldType": "Text",
    "ObjectID": "ee5c04c1-d666-4b2a-8f16-14535fc23d63",
    "MaxLength": "50",
    "Scale": "0",
    "IsRequired": "false",
    "IsPrimaryKey": "false",
    "DefaultValue": "",
    "Ordinal": 45
  },
  {
    "Name": "TARGET_DATE",
    "FieldType": "Text",
    "ObjectID": "60048511-2d52-4359-b1f8-1583e29219db",
    "MaxLength": "50",
    "Scale": "0",
    "IsRequired": "false",
    "IsPrimaryKey": "false",
    "DefaultValue": "",
    "Ordinal": 46
  },
  {
    "Name": "DROP_DATE",
    "FieldType": "Text",
    "ObjectID": "1213ec4e-9c7a-4b64-87a2-6a7b596b7619",
    "MaxLength": "50",
    "Scale": "0",
    "IsRequired": "false",
    "IsPrimaryKey": "false",
    "DefaultValue": "",
    "Ordinal": 47
  },
  {
    "Name": "BRAND_ABBREVIATION",
    "FieldType": "Text",
    "ObjectID": "d487cb42-2f54-48db-9d1b-0afbfc03d86b",
    "MaxLength": "50",
    "Scale": "0",
    "IsRequired": "false",
    "IsPrimaryKey": "false",
    "DefaultValue": "",
    "Ordinal": 48
  },
  {
    "Name": "CHANNEL_CD",
    "FieldType": "Text",
    "ObjectID": "33b73ade-e4c9-42c9-8fc7-e497b3be24df",
    "MaxLength": "50",
    "Scale": "0",
    "IsRequired": "false",
    "IsPrimaryKey": "false",
    "DefaultValue": "",
    "Ordinal": 49
  },
  {
    "Name": "VENDOR_CD",
    "FieldType": "Text",
    "ObjectID": "e960d123-908f-4181-a7e2-6b5dc24f1212",
    "MaxLength": "50",
    "Scale": "0",
    "IsRequired": "false",
    "IsPrimaryKey": "false",
    "DefaultValue": "",
    "Ordinal": 50
  },
  {
    "Name": "DECILE",
    "FieldType": "Text",
    "ObjectID": "22f1e721-3ada-4b3d-91bd-ce953df1d5fe",
    "MaxLength": "50",
    "Scale": "0",
    "IsRequired": "false",
    "IsPrimaryKey": "false",
    "DefaultValue": "",
    "Ordinal": 51
  },
  {
    "Name": "QUINTILE",
    "FieldType": "Text",
    "ObjectID": "7696cfab-41d9-47a1-aa34-548c39447684",
    "MaxLength": "50",
    "Scale": "0",
    "IsRequired": "false",
    "IsPrimaryKey": "false",
    "DefaultValue": "",
    "Ordinal": 52
  },
  {
    "Name": "SAMPLE_QTY",
    "FieldType": "Text",
    "ObjectID": "23609e70-642f-4097-b962-71eef7bb8bc3",
    "MaxLength": "50",
    "Scale": "0",
    "IsRequired": "false",
    "IsPrimaryKey": "false",
    "DefaultValue": "",
    "Ordinal": 53
  },
  {
    "Name": "SAMPLE_DOSAGE",
    "FieldType": "Text",
    "ObjectID": "1a9346e9-93d2-4fc0-af8c-031be82ca856",
    "MaxLength": "50",
    "Scale": "0",
    "IsRequired": "false",
    "IsPrimaryKey": "false",
    "DefaultValue": "",
    "Ordinal": 54
  },
  {
    "Name": "CUSTOM_1",
    "FieldType": "Text",
    "ObjectID": "eeefb1d7-239f-4003-ac72-907d73276fad",
    "MaxLength": "50",
    "Scale": "0",
    "IsRequired": "false",
    "IsPrimaryKey": "false",
    "DefaultValue": "",
    "Ordinal": 55
  },
  {
    "Name": "CUSTOM_2",
    "FieldType": "Text",
    "ObjectID": "7f6cc585-4c53-4b53-937d-275240c82d45",
    "MaxLength": "50",
    "Scale": "0",
    "IsRequired": "false",
    "IsPrimaryKey": "false",
    "DefaultValue": "",
    "Ordinal": 56
  },
  {
    "Name": "CUSTOM_3",
    "FieldType": "Text",
    "ObjectID": "b7472b86-6743-4977-9bf6-eccfc2d0938c",
    "MaxLength": "50",
    "Scale": "0",
    "IsRequired": "false",
    "IsPrimaryKey": "false",
    "DefaultValue": "",
    "Ordinal": 57
  },
  {
    "Name": "CUSTOM_4",
    "FieldType": "Text",
    "ObjectID": "97066b98-8a67-4c15-bc2f-81519a0c63a9",
    "MaxLength": "50",
    "Scale": "0",
    "IsRequired": "false",
    "IsPrimaryKey": "false",
    "DefaultValue": "",
    "Ordinal": 58
  },
  {
    "Name": "CUSTOM_5",
    "FieldType": "Text",
    "ObjectID": "835e90f3-af7c-4f9b-a0a2-4e92ca112363",
    "MaxLength": "50",
    "Scale": "0",
    "IsRequired": "false",
    "IsPrimaryKey": "false",
    "DefaultValue": "",
    "Ordinal": 59
  },
  {
    "Name": "CUSTOM_6",
    "FieldType": "Text",
    "ObjectID": "6816eb64-e61f-4fa6-b531-fc14fb1123bb",
    "MaxLength": "50",
    "Scale": "0",
    "IsRequired": "false",
    "IsPrimaryKey": "false",
    "DefaultValue": "",
    "Ordinal": 60
  },
  {
    "Name": "CUSTOM_7",
    "FieldType": "Text",
    "ObjectID": "6adfe6b7-9b1d-4398-94c6-6183d1e5d151",
    "MaxLength": "50",
    "Scale": "0",
    "IsRequired": "false",
    "IsPrimaryKey": "false",
    "DefaultValue": "",
    "Ordinal": 61
  },
  {
    "Name": "CUSTOM_8",
    "FieldType": "Text",
    "ObjectID": "21f20d4e-6fa6-43f5-b55a-13934b2ff490",
    "MaxLength": "50",
    "Scale": "0",
    "IsRequired": "false",
    "IsPrimaryKey": "false",
    "DefaultValue": "",
    "Ordinal": 62
  },
  {
    "Name": "CUSTOM_9",
    "FieldType": "Text",
    "ObjectID": "bfaac9de-f33a-4aba-bf81-82921b1588a1",
    "MaxLength": "50",
    "Scale": "0",
    "IsRequired": "false",
    "IsPrimaryKey": "false",
    "DefaultValue": "",
    "Ordinal": 63
  },
  {
    "Name": "CUSTOM_10",
    "FieldType": "Text",
    "ObjectID": "0e56d9e7-c9d4-4cc6-a201-e3819a2aae1a",
    "MaxLength": "50",
    "Scale": "0",
    "IsRequired": "false",
    "IsPrimaryKey": "false",
    "DefaultValue": "",
    "Ordinal": 64
  },
  {
    "Name": "CUSTOM_11",
    "FieldType": "Text",
    "ObjectID": "61c52057-5c86-4754-8c42-d7e77e558895",
    "MaxLength": "50",
    "Scale": "0",
    "IsRequired": "false",
    "IsPrimaryKey": "false",
    "DefaultValue": "",
    "Ordinal": 65
  },
  {
    "Name": "CUSTOM_12",
    "FieldType": "Text",
    "ObjectID": "5292840f-00b5-4bb1-8c87-d80b97d1555b",
    "MaxLength": "50",
    "Scale": "0",
    "IsRequired": "false",
    "IsPrimaryKey": "false",
    "DefaultValue": "",
    "Ordinal": 66
  },
  {
    "Name": "CUSTOM_13",
    "FieldType": "Text",
    "ObjectID": "74658274-ccd8-4814-bb7e-eb6990d57ef7",
    "MaxLength": "50",
    "Scale": "0",
    "IsRequired": "false",
    "IsPrimaryKey": "false",
    "DefaultValue": "",
    "Ordinal": 67
  },
  {
    "Name": "CUSTOM_14",
    "FieldType": "Text",
    "ObjectID": "dae88d5f-3881-403b-a898-8fdfac18d084",
    "MaxLength": "50",
    "Scale": "0",
    "IsRequired": "false",
    "IsPrimaryKey": "false",
    "DefaultValue": "",
    "Ordinal": 68
  },
  {
    "Name": "CUSTOM_15",
    "FieldType": "Text",
    "ObjectID": "41b3c194-7251-4f35-86c7-f5fcb39168fd",
    "MaxLength": "50",
    "Scale": "0",
    "IsRequired": "false",
    "IsPrimaryKey": "false",
    "DefaultValue": "",
    "Ordinal": 69
  },
  {
    "Name": "CUSTOM_16",
    "FieldType": "Text",
    "ObjectID": "dd92a5ee-2d98-4c4a-b2d0-3e7fe771542c",
    "MaxLength": "50",
    "Scale": "0",
    "IsRequired": "false",
    "IsPrimaryKey": "false",
    "DefaultValue": "",
    "Ordinal": 70
  },
  {
    "Name": "CUSTOM_17",
    "FieldType": "Text",
    "ObjectID": "60f12513-d34b-4392-8aab-25348e2a3ac4",
    "MaxLength": "50",
    "Scale": "0",
    "IsRequired": "false",
    "IsPrimaryKey": "false",
    "DefaultValue": "",
    "Ordinal": 71
  },
  {
    "Name": "CUSTOM_18",
    "FieldType": "Text",
    "ObjectID": "6d363b97-85d8-45d7-9104-8dd106e8ab9f",
    "MaxLength": "50",
    "Scale": "0",
    "IsRequired": "false",
    "IsPrimaryKey": "false",
    "DefaultValue": "",
    "Ordinal": 72
  },
  {
    "Name": "CUSTOM_19",
    "FieldType": "Text",
    "ObjectID": "52b0ecc1-7268-48a3-b619-056a7501e324",
    "MaxLength": "50",
    "Scale": "0",
    "IsRequired": "false",
    "IsPrimaryKey": "false",
    "DefaultValue": "",
    "Ordinal": 73
  },
  {
    "Name": "CUSTOM_20",
    "FieldType": "Text",
    "ObjectID": "390cc9fc-48c8-4137-bd60-5e72f562886d",
    "MaxLength": "50",
    "Scale": "0",
    "IsRequired": "false",
    "IsPrimaryKey": "false",
    "DefaultValue": "",
    "Ordinal": 74
  },
  {
    "Name": "CUSTOM_21",
    "FieldType": "Text",
    "ObjectID": "949775cc-4a7f-4590-8638-b32e917e16b8",
    "MaxLength": "50",
    "Scale": "0",
    "IsRequired": "false",
    "IsPrimaryKey": "false",
    "DefaultValue": "",
    "Ordinal": 75
  },
  {
    "Name": "CUSTOM_22",
    "FieldType": "Text",
    "ObjectID": "262e6772-ca16-42ae-a3e7-db997104877e",
    "MaxLength": "50",
    "Scale": "0",
    "IsRequired": "false",
    "IsPrimaryKey": "false",
    "DefaultValue": "",
    "Ordinal": 76
  },
  {
    "Name": "CUSTOM_23",
    "FieldType": "Text",
    "ObjectID": "409a12b0-8fc0-4f85-ba62-ac86a6ef9907",
    "MaxLength": "50",
    "Scale": "0",
    "IsRequired": "false",
    "IsPrimaryKey": "false",
    "DefaultValue": "",
    "Ordinal": 77
  },
  {
    "Name": "CUSTOM_24",
    "FieldType": "Text",
    "ObjectID": "601030cb-d46e-4bd1-b2f8-deee4d1113f7",
    "MaxLength": "50",
    "Scale": "0",
    "IsRequired": "false",
    "IsPrimaryKey": "false",
    "DefaultValue": "",
    "Ordinal": 78
  },
  {
    "Name": "CUSTOM_25",
    "FieldType": "Text",
    "ObjectID": "6393a15f-6aa1-44fb-90e6-7bd518e9c04d",
    "MaxLength": "50",
    "Scale": "0",
    "IsRequired": "false",
    "IsPrimaryKey": "false",
    "DefaultValue": "",
    "Ordinal": 79
  },
  {
    "Name": "CUSTOM_26",
    "FieldType": "Text",
    "ObjectID": "ff7d76b8-e30b-4879-99ad-8839c68fa96a",
    "MaxLength": "50",
    "Scale": "0",
    "IsRequired": "false",
    "IsPrimaryKey": "false",
    "DefaultValue": "",
    "Ordinal": 80
  },
  {
    "Name": "CUSTOM_27",
    "FieldType": "Text",
    "ObjectID": "ea764807-b36f-48af-99ea-8d1dc0fd485d",
    "MaxLength": "50",
    "Scale": "0",
    "IsRequired": "false",
    "IsPrimaryKey": "false",
    "DefaultValue": "",
    "Ordinal": 81
  },
  {
    "Name": "CUSTOM_28",
    "FieldType": "Text",
    "ObjectID": "ee4b48ae-926e-4e81-8d4f-c119b9745d60",
    "MaxLength": "50",
    "Scale": "0",
    "IsRequired": "false",
    "IsPrimaryKey": "false",
    "DefaultValue": "",
    "Ordinal": 82
  },
  {
    "Name": "CUSTOM_29",
    "FieldType": "Text",
    "ObjectID": "52b002be-2660-482c-8535-170c05e3cf7a",
    "MaxLength": "50",
    "Scale": "0",
    "IsRequired": "false",
    "IsPrimaryKey": "false",
    "DefaultValue": "",
    "Ordinal": 83
  },
  {
    "Name": "CUSTOM_30",
    "FieldType": "Text",
    "ObjectID": "88302d30-af26-4f0b-b0bd-1a0ed2ddbda7",
    "MaxLength": "50",
    "Scale": "0",
    "IsRequired": "false",
    "IsPrimaryKey": "false",
    "DefaultValue": "",
    "Ordinal": 84
  },
  {
    "Name": "UNIQUE_IDENTIFIER",
    "FieldType": "Text",
    "ObjectID": "7488d69a-ed43-4018-a7b8-1c3a11d3a002",
    "MaxLength": "50",
    "Scale": "",
    "IsRequired": "false",
    "IsPrimaryKey": "false",
    "DefaultValue": "",
    "Ordinal": 85
  },
  {
    "Name": "EMAIL_ID",
    "FieldType": "EmailAddress",
    "ObjectID": "88ca96f6-dbca-421c-b564-c6b7a5b23ded",
    "MaxLength": "254",
    "Scale": "",
    "IsRequired": "false",
    "IsPrimaryKey": "false",
    "DefaultValue": "",
    "Ordinal": 86
  },
  {
    "Name": "COMPOSITE_KEY",
    "FieldType": "Text",
    "ObjectID": "90669c2c-0eab-4591-939c-f464e17db52c",
    "MaxLength": "50",
    "Scale": "",
    "IsRequired": "false",
    "IsPrimaryKey": "false",
    "DefaultValue": "",
    "Ordinal": 87
  },
  {
    "Name": "RESPONSE_DATE",
    "FieldType": "Date",
    "ObjectID": "379c747b-bada-4123-bfeb-8a10ad3dd6ad",
    "MaxLength": "",
    "Scale": "",
    "IsRequired": "false",
    "IsPrimaryKey": "false",
    "DefaultValue": "",
    "Ordinal": 88
  },
  {
    "Name": "PREFERRED_CHANNEL_CD",
    "FieldType": "Text",
    "ObjectID": "c2a4486a-0456-4247-b0c5-6d7f7a23b0db",
    "MaxLength": "50",
    "Scale": "",
    "IsRequired": "false",
    "IsPrimaryKey": "false",
    "DefaultValue": "",
    "Ordinal": 89
  },
  {
    "Name": "SAMPLE_QTY_REQUESTED",
    "FieldType": "Text",
    "ObjectID": "398c70d2-9d9f-43a8-ad80-e00e63a063a5",
    "MaxLength": "50",
    "Scale": "",
    "IsRequired": "false",
    "IsPrimaryKey": "false",
    "DefaultValue": "",
    "Ordinal": 90
  },
  {
    "Name": "SAMPLE_QTY_FULFILLED",
    "FieldType": "Text",
    "ObjectID": "880f3790-8fd4-4a37-b264-34ae6dc76e12",
    "MaxLength": "50",
    "Scale": "",
    "IsRequired": "false",
    "IsPrimaryKey": "false",
    "DefaultValue": "",
    "Ordinal": 91
  },
  {
    "Name": "SAMPLE_DOSAGE_REQUESTED",
    "FieldType": "Text",
    "ObjectID": "dfb600e7-3ab6-4a6f-adad-875791236aff",
    "MaxLength": "50",
    "Scale": "",
    "IsRequired": "false",
    "IsPrimaryKey": "false",
    "DefaultValue": "",
    "Ordinal": 92
  },
  {
    "Name": "SAMPLE_DOSAGE_FULFILLED",
    "FieldType": "Text",
    "ObjectID": "44fe41f3-e379-41a4-9e8e-408e3d3a01e8",
    "MaxLength": "50",
    "Scale": "",
    "IsRequired": "false",
    "IsPrimaryKey": "false",
    "DefaultValue": "",
    "Ordinal": 93
  },
  {
    "Name": "SHIPPING_METHOD",
    "FieldType": "Text",
    "ObjectID": "b246486b-da31-4c81-8124-ae483a00b8d1",
    "MaxLength": "50",
    "Scale": "",
    "IsRequired": "false",
    "IsPrimaryKey": "false",
    "DefaultValue": "",
    "Ordinal": 94
  },
  {
    "Name": "SHIPPING_OPTION",
    "FieldType": "Text",
    "ObjectID": "f91bd402-071c-49f5-8109-1cfe7fedb276",
    "MaxLength": "50",
    "Scale": "",
    "IsRequired": "false",
    "IsPrimaryKey": "false",
    "DefaultValue": "",
    "Ordinal": 95
  }
]