{
  "$": {
    "xsi:type": "DataExtension"
  },
  "PartnerKey": [
    {
      "$": {
        "xsi:nil": "true"
      }
    }
  ],
  "ObjectID": [
    {
      "$": {
        "xsi:nil": "true"
      }
    }
  ],
  "CustomerKey": [
    "sample_de"
  ],
  "Name": [
    "sample_de"
  ]
}