{
  "$": {
    "xsi:type": "DataExtension"
  },
  "PartnerKey": [
    {
      "$": {
        "xsi:nil": "true"
      }
    }
  ],
  "ObjectID": [
    {
      "$": {
        "xsi:nil": "true"
      }
    }
  ],
  "CustomerKey": [
    "EEE010A5-C75B-44A5-8DDB-683E3CD76286"
  ],
  "Name": [
    "Team3 DE"
  ]
}