[
  {
    "Name": "ID",
    "FieldType": "Text",
    "ObjectID": "e44c3ba2-e53e-4060-8162-fd8fb66ffb23",
    "MaxLength": "50",
    "Scale": "0",
    "IsRequired": "true",
    "IsPrimaryKey": "true",
    "DefaultValue": "",
    "Ordinal": 0
  },
  {
    "Name": "CMA_ID",
    "FieldType": "Text",
    "ObjectID": "784bb62f-e0f5-4f8d-affb-432e38cc3bc0",
    "MaxLength": "50",
    "Scale": "0",
    "IsRequired": "false",
    "IsPrimaryKey": "false",
    "DefaultValue": "",
    "Ordinal": 1
  },
  {
    "Name": "ADDRESS_ID",
    "FieldType": "Text",
    "ObjectID": "11f08eb0-3971-42ab-a603-e4f022696826",
    "MaxLength": "50",
    "Scale": "0",
    "IsRequired": "false",
    "IsPrimaryKey": "false",
    "DefaultValue": "",
    "Ordinal": 2
  },
  {
    "Name": "CONTACT_ID",
    "FieldType": "Text",
    "ObjectID": "e12605b5-52d8-4e13-ab94-e2bd7e5d38a9",
    "MaxLength": "50",
    "Scale": "0",
    "IsRequired": "false",
    "IsPrimaryKey": "false",
    "DefaultValue": "",
    "Ordinal": 3
  },
  {
    "Name": "PROF_ADDRESS_ID",
    "FieldType": "Text",
    "ObjectID": "0b3b0c37-d63b-4cf9-878f-0d6417ab2a7e",
    "MaxLength": "50",
    "Scale": "0",
    "IsRequired": "false",
    "IsPrimaryKey": "false",
    "DefaultValue": "",
    "Ordinal": 4
  },
  {
    "Name": "PRIMARY_KEYCODE",
    "FieldType": "Text",
    "ObjectID": "ff715251-54d1-4952-b787-0294a34e9072",
    "MaxLength": "50",
    "Scale": "0",
    "IsRequired": "false",
    "IsPrimaryKey": "false",
    "DefaultValue": "",
    "Ordinal": 5
  },
  {
    "Name": "ME_NUMBER",
    "FieldType": "Text",
    "ObjectID": "73cd07df-ead1-4232-b940-13c5771cfe75",
    "MaxLength": "50",
    "Scale": "0",
    "IsRequired": "false",
    "IsPrimaryKey": "false",
    "DefaultValue": "",
    "Ordinal": 6
  },
  {
    "Name": "NPI_NUMBER",
    "FieldType": "Text",
    "ObjectID": "04929025-0412-404f-99bf-73113f99fc8f",
    "MaxLength": "50",
    "Scale": "0",
    "IsRequired": "false",
    "IsPrimaryKey": "false",
    "DefaultValue": "",
    "Ordinal": 7
  },
  {
    "Name": "STATE_LIC_NUMBER",
    "FieldType": "Text",
    "ObjectID": "da357150-3de2-44be-b181-ed9c75e677f5",
    "MaxLength": "50",
    "Scale": "0",
    "IsRequired": "false",
    "IsPrimaryKey": "false",
    "DefaultValue": "",
    "Ordinal": 8
  },
  {
    "Name": "STATE_LIC_NUMBER_STATE",
    "FieldType": "Text",
    "ObjectID": "7c4e1a35-8d14-487f-939e-19ce77d9ec28",
    "MaxLength": "50",
    "Scale": "0",
    "IsRequired": "false",
    "IsPrimaryKey": "false",
    "DefaultValue": "",
    "Ordinal": 9
  },
  {
    "Name": "STATE_LIC_EXPIRATION_DATE",
    "FieldType": "Text",
    "ObjectID": "d66fef66-9623-4017-a1ec-5e05610c7bfb",
    "MaxLength": "",
    "Scale": "0",
    "IsRequired": "false",
    "IsPrimaryKey": "false",
    "DefaultValue": "",
    "Ordinal": 10
  },
  {
    "Name": "SALUTATION",
    "FieldType": "Text",
    "ObjectID": "a560c618-204f-4851-975a-79c3b3297e50",
    "MaxLength": "50",
    "Scale": "0",
    "IsRequired": "false",
    "IsPrimaryKey": "false",
    "DefaultValue": "",
    "Ordinal": 11
  },
  {
    "Name": "FIRST_NAME",
    "FieldType": "Text",
    "ObjectID": "54501b53-464e-4f76-8520-3891fd3fefde",
    "MaxLength": "50",
    "Scale": "0",
    "IsRequired": "false",
    "IsPrimaryKey": "false",
    "DefaultValue": "",
    "Ordinal": 12
  },
  {
    "Name": "MIDDLE_NAME",
    "FieldType": "Text",
    "ObjectID": "5a512e04-c718-4ac1-abad-8429bfd747bb",
    "MaxLength": "50",
    "Scale": "0",
    "IsRequired": "false",
    "IsPrimaryKey": "false",
    "DefaultValue": "",
    "Ordinal": 13
  },
  {
    "Name": "LAST_NAME",
    "FieldType": "Text",
    "ObjectID": "2a89a3c8-f296-4f08-a4d5-dbcf55e3aceb",
    "MaxLength": "50",
    "Scale": "0",
    "IsRequired": "false",
    "IsPrimaryKey": "false",
    "DefaultValue": "",
    "Ordinal": 14
  },
  {
    "Name": "SUFFIX",
    "FieldType": "Text",
    "ObjectID": "a0dbcdf8-36a8-450d-b06a-79d960aaaefa",
    "MaxLength": "50",
    "Scale": "0",
    "IsRequired": "false",
    "IsPrimaryKey": "false",
    "DefaultValue": "",
    "Ordinal": 15
  },
  {
    "Name": "TITLE",
    "FieldType": "Text",
    "ObjectID": "ac7bd2e4-381a-49f1-98b1-0371f9cbc9fa",
    "MaxLength": "50",
    "Scale": "0",
    "IsRequired": "false",
    "IsPrimaryKey": "false",
    "DefaultValue": "",
    "Ordinal": 16
  },
  {
    "Name": "FREEFORM_NAME",
    "FieldType": "Text",
    "ObjectID": "220e8beb-1a74-4d9a-b578-618736e86477",
    "MaxLength": "50",
    "Scale": "0",
    "IsRequired": "false",
    "IsPrimaryKey": "false",
    "DefaultValue": "",
    "Ordinal": 17
  },
  {
    "Name": "ADDRESS1",
    "FieldType": "Text",
    "ObjectID": "1b5d2024-71b3-4896-9bc4-a650d68685bd",
    "MaxLength": "50",
    "Scale": "0",
    "IsRequired": "false",
    "IsPrimaryKey": "false",
    "DefaultValue": "",
    "Ordinal": 18
  },
  {
    "Name": "ADDRESS2",
    "FieldType": "Text",
    "ObjectID": "6caab988-f085-4bc1-9ae0-1d88dca96f99",
    "MaxLength": "50",
    "Scale": "0",
    "IsRequired": "false",
    "IsPrimaryKey": "false",
    "DefaultValue": "",
    "Ordinal": 19
  },
  {
    "Name": "ADDRESS3",
    "FieldType": "Text",
    "ObjectID": "24e2a6ec-2c80-47f2-a822-ad9503ece521",
    "MaxLength": "50",
    "Scale": "0",
    "IsRequired": "false",
    "IsPrimaryKey": "false",
    "DefaultValue": "",
    "Ordinal": 20
  },
  {
    "Name": "CITY",
    "FieldType": "Text",
    "ObjectID": "2029b422-00c2-4b75-b924-b87caf33fd7a",
    "MaxLength": "50",
    "Scale": "0",
    "IsRequired": "false",
    "IsPrimaryKey": "false",
    "DefaultValue": "",
    "Ordinal": 21
  },
  {
    "Name": "STATE_CD",
    "FieldType": "Text",
    "ObjectID": "f915a786-2bdb-40a1-83a2-2b1f36e9ae5a",
    "MaxLength": "50",
    "Scale": "0",
    "IsRequired": "false",
    "IsPrimaryKey": "false",
    "DefaultValue": "",
    "Ordinal": 22
  },
  {
    "Name": "ZIP",
    "FieldType": "Text",
    "ObjectID": "dd8cf5a3-7d1b-4ede-9fa8-6a8cc8cf7d32",
    "MaxLength": "50",
    "Scale": "0",
    "IsRequired": "false",
    "IsPrimaryKey": "false",
    "DefaultValue": "",
    "Ordinal": 23
  },
  {
    "Name": "ZIP_4",
    "FieldType": "Text",
    "ObjectID": "a09dd3b3-24df-4e97-b6f1-89566626c3aa",
    "MaxLength": "50",
    "Scale": "0",
    "IsRequired": "false",
    "IsPrimaryKey": "false",
    "DefaultValue": "",
    "Ordinal": 24
  },
  {
    "Name": "COUNTY",
    "FieldType": "Text",
    "ObjectID": "cda00d85-7188-47f4-bffb-5d78e0cd0b67",
    "MaxLength": "50",
    "Scale": "0",
    "IsRequired": "false",
    "IsPrimaryKey": "false",
    "DefaultValue": "",
    "Ordinal": 25
  },
  {
    "Name": "COUNTRY",
    "FieldType": "Text",
    "ObjectID": "c0313de8-4995-41c8-b7f9-37552aae5b21",
    "MaxLength": "50",
    "Scale": "0",
    "IsRequired": "false",
    "IsPrimaryKey": "false",
    "DefaultValue": "",
    "Ordinal": 26
  },
  {
    "Name": "PHONE_NUMBER",
    "FieldType": "Text",
    "ObjectID": "ce6c837a-231d-4418-9702-2818e83a5217",
    "MaxLength": "50",
    "Scale": "0",
    "IsRequired": "false",
    "IsPrimaryKey": "false",
    "DefaultValue": "",
    "Ordinal": 27
  },
  {
    "Name": "SMS",
    "FieldType": "Text",
    "ObjectID": "ad2b8754-597f-46c7-a01f-12d1e7a434eb",
    "MaxLength": "50",
    "Scale": "0",
    "IsRequired": "false",
    "IsPrimaryKey": "false",
    "DefaultValue": "",
    "Ordinal": 28
  },
  {
    "Name": "FAX_NUMBER",
    "FieldType": "Text",
    "ObjectID": "e697e63d-1c06-4166-9ff3-da7fd0db2993",
    "MaxLength": "50",
    "Scale": "0",
    "IsRequired": "false",
    "IsPrimaryKey": "false",
    "DefaultValue": "",
    "Ordinal": 29
  },
  {
    "Name": "EMAIL_ADDRESS",
    "FieldType": "Text",
    "ObjectID": "c69e85ca-023b-4bb4-9dfd-1f954744b422",
    "MaxLength": "50",
    "Scale": "0",
    "IsRequired": "false",
    "IsPrimaryKey": "false",
    "DefaultValue": "",
    "Ordinal": 30
  },
  {
    "Name": "HTML_PLAINTEXT_AOL",
    "FieldType": "Text",
    "ObjectID": "072008be-2bb8-43cf-9191-f779190edad9",
    "MaxLength": "50",
    "Scale": "0",
    "IsRequired": "false",
    "IsPrimaryKey": "false",
    "DefaultValue": "",
    "Ordinal": 31
  },
  {
    "Name": "GENDER",
    "FieldType": "Text",
    "ObjectID": "1968ed1f-e28a-49cc-ad87-e94626a1e836",
    "MaxLength": "50",
    "Scale": "0",
    "IsRequired": "false",
    "IsPrimaryKey": "false",
    "DefaultValue": "",
    "Ordinal": 32
  },
  {
    "Name": "SALES_FORCE_TARGET_IND",
    "FieldType": "Text",
    "ObjectID": "703e9899-23f6-4773-8e5f-eef2ca45bebf",
    "MaxLength": "50",
    "Scale": "0",
    "IsRequired": "false",
    "IsPrimaryKey": "false",
    "DefaultValue": "",
    "Ordinal": 33
  },
  {
    "Name": "PRIMARY_SPECIALTY",
    "FieldType": "Text",
    "ObjectID": "87a3bd16-f596-4f30-a371-a0525be7d2db",
    "MaxLength": "50",
    "Scale": "0",
    "IsRequired": "false",
    "IsPrimaryKey": "false",
    "DefaultValue": "",
    "Ordinal": 34
  },
  {
    "Name": "TERRITORY_ID",
    "FieldType": "Text",
    "ObjectID": "35307751-65e2-4f08-84c8-cd92aaeb8e54",
    "MaxLength": "50",
    "Scale": "0",
    "IsRequired": "false",
    "IsPrimaryKey": "false",
    "DefaultValue": "",
    "Ordinal": 35
  },
  {
    "Name": "PRACTICE_NAME",
    "FieldType": "Text",
    "ObjectID": "a77f32bb-38e4-4ec8-94bf-2842c68eea79",
    "MaxLength": "50",
    "Scale": "0",
    "IsRequired": "false",
    "IsPrimaryKey": "false",
    "DefaultValue": "",
    "Ordinal": 36
  },
  {
    "Name": "SEGMENT_CODE",
    "FieldType": "Text",
    "ObjectID": "c272c4f9-4061-4488-8399-a61febd18905",
    "MaxLength": "50",
    "Scale": "0",
    "IsRequired": "false",
    "IsPrimaryKey": "false",
    "DefaultValue": "",
    "Ordinal": 37
  },
  {
    "Name": "CAMPAIGN_CODE",
    "FieldType": "Text",
    "ObjectID": "b3c0b772-3e49-449d-aed5-246a06951c7e",
    "MaxLength": "50",
    "Scale": "0",
    "IsRequired": "false",
    "IsPrimaryKey": "false",
    "DefaultValue": "",
    "Ordinal": 38
  },
  {
    "Name": "CAMPAIGN_CODE_DESC",
    "FieldType": "Text",
    "ObjectID": "b65b9cf9-2e5b-47e2-b420-19cba01ccdf0",
    "MaxLength": "50",
    "Scale": "0",
    "IsRequired": "false",
    "IsPrimaryKey": "false",
    "DefaultValue": "",
    "Ordinal": 39
  },
  {
    "Name": "OFFER_CODE",
    "FieldType": "Text",
    "ObjectID": "bc50917b-e373-44f6-8fd3-ddc4fe5906ad",
    "MaxLength": "50",
    "Scale": "0",
    "IsRequired": "false",
    "IsPrimaryKey": "false",
    "DefaultValue": "",
    "Ordinal": 40
  },
  {
    "Name": "OFFER_CODE_DESC",
    "FieldType": "Text",
    "ObjectID": "a12aafcc-27a7-4791-bb17-27cf0e69a4be",
    "MaxLength": "50",
    "Scale": "0",
    "IsRequired": "false",
    "IsPrimaryKey": "false",
    "DefaultValue": "",
    "Ordinal": 41
  },
  {
    "Name": "TREATMENT_CODE",
    "FieldType": "Text",
    "ObjectID": "d9c52df2-09e1-44b6-9a77-97999e435acb",
    "MaxLength": "50",
    "Scale": "0",
    "IsRequired": "false",
    "IsPrimaryKey": "false",
    "DefaultValue": "",
    "Ordinal": 42
  },
  {
    "Name": "TREATMENT_CODE_DESC",
    "FieldType": "Text",
    "ObjectID": "fd390b51-cc3e-46e2-a9f3-6b2e37c15993",
    "MaxLength": "50",
    "Scale": "0",
    "IsRequired": "false",
    "IsPrimaryKey": "false",
    "DefaultValue": "",
    "Ordinal": 43
  },
  {
    "Name": "CELL_CODE",
    "FieldType": "Text",
    "ObjectID": "d0e729bd-a849-46af-ba57-ae9a892f4c54",
    "MaxLength": "50",
    "Scale": "0",
    "IsRequired": "false",
    "IsPrimaryKey": "false",
    "DefaultValue": "",
    "Ordinal": 44
  },
  {
    "Name": "CELL_CODE_DESC",
    "FieldType": "Text",
    "ObjectID": "d1fb420f-bb87-4097-8e22-a1a0f425a9b1",
    "MaxLength": "50",
    "Scale": "0",
    "IsRequired": "false",
    "IsPrimaryKey": "false",
    "DefaultValue": "",
    "Ordinal": 45
  },
  {
    "Name": "TARGET_DATE",
    "FieldType": "Text",
    "ObjectID": "6198ad4c-9d77-42bb-9ff2-1cbe0ebf4949",
    "MaxLength": "50",
    "Scale": "0",
    "IsRequired": "false",
    "IsPrimaryKey": "false",
    "DefaultValue": "",
    "Ordinal": 46
  },
  {
    "Name": "DROP_DATE",
    "FieldType": "Text",
    "ObjectID": "0793f483-6092-4b5c-b2dd-67f0599db5c2",
    "MaxLength": "50",
    "Scale": "0",
    "IsRequired": "false",
    "IsPrimaryKey": "false",
    "DefaultValue": "",
    "Ordinal": 47
  },
  {
    "Name": "BRAND_ABBREVIATION",
    "FieldType": "Text",
    "ObjectID": "69c39c74-ab1a-4ad9-bccc-9ea260626745",
    "MaxLength": "50",
    "Scale": "0",
    "IsRequired": "false",
    "IsPrimaryKey": "false",
    "DefaultValue": "",
    "Ordinal": 48
  },
  {
    "Name": "CHANNEL_CD",
    "FieldType": "Text",
    "ObjectID": "9eeacaea-ac70-4194-85b6-b9280f6de45c",
    "MaxLength": "50",
    "Scale": "0",
    "IsRequired": "false",
    "IsPrimaryKey": "false",
    "DefaultValue": "",
    "Ordinal": 49
  },
  {
    "Name": "VENDOR_CD",
    "FieldType": "Text",
    "ObjectID": "0a47b0a7-828f-4b06-96ef-1b5b24aed407",
    "MaxLength": "50",
    "Scale": "0",
    "IsRequired": "false",
    "IsPrimaryKey": "false",
    "DefaultValue": "",
    "Ordinal": 50
  },
  {
    "Name": "DECILE",
    "FieldType": "Text",
    "ObjectID": "6852a602-2855-4a19-8852-37128c472c06",
    "MaxLength": "50",
    "Scale": "0",
    "IsRequired": "false",
    "IsPrimaryKey": "false",
    "DefaultValue": "",
    "Ordinal": 51
  },
  {
    "Name": "QUINTILE",
    "FieldType": "Text",
    "ObjectID": "ef662e4a-214a-4be6-a793-584036edddaf",
    "MaxLength": "50",
    "Scale": "0",
    "IsRequired": "false",
    "IsPrimaryKey": "false",
    "DefaultValue": "",
    "Ordinal": 52
  },
  {
    "Name": "SAMPLE_QTY",
    "FieldType": "Text",
    "ObjectID": "f5761d54-4bfb-444d-b377-2d8fa2219fff",
    "MaxLength": "50",
    "Scale": "0",
    "IsRequired": "false",
    "IsPrimaryKey": "false",
    "DefaultValue": "",
    "Ordinal": 53
  },
  {
    "Name": "SAMPLE_DOSAGE",
    "FieldType": "Text",
    "ObjectID": "4982c0a7-456d-4ba1-8862-ee4769e6ffd5",
    "MaxLength": "50",
    "Scale": "0",
    "IsRequired": "false",
    "IsPrimaryKey": "false",
    "DefaultValue": "",
    "Ordinal": 54
  },
  {
    "Name": "CUSTOM_1",
    "FieldType": "Text",
    "ObjectID": "813a1968-c40c-4632-bade-30a4cce12797",
    "MaxLength": "50",
    "Scale": "0",
    "IsRequired": "false",
    "IsPrimaryKey": "false",
    "DefaultValue": "",
    "Ordinal": 55
  },
  {
    "Name": "CUSTOM_2",
    "FieldType": "Text",
    "ObjectID": "e7f0c0c4-c2ed-4481-86ff-d428fe4c4d34",
    "MaxLength": "50",
    "Scale": "0",
    "IsRequired": "false",
    "IsPrimaryKey": "false",
    "DefaultValue": "",
    "Ordinal": 56
  },
  {
    "Name": "CUSTOM_3",
    "FieldType": "Text",
    "ObjectID": "ec995079-bdcf-4c35-aabc-681fc1298bac",
    "MaxLength": "50",
    "Scale": "0",
    "IsRequired": "false",
    "IsPrimaryKey": "false",
    "DefaultValue": "",
    "Ordinal": 57
  },
  {
    "Name": "CUSTOM_4",
    "FieldType": "Text",
    "ObjectID": "2529597e-2d1c-4a00-9eab-741459937725",
    "MaxLength": "50",
    "Scale": "0",
    "IsRequired": "false",
    "IsPrimaryKey": "false",
    "DefaultValue": "",
    "Ordinal": 58
  },
  {
    "Name": "CUSTOM_5",
    "FieldType": "Text",
    "ObjectID": "5fb099b3-2f92-4e3c-b664-4b7317f99619",
    "MaxLength": "50",
    "Scale": "0",
    "IsRequired": "false",
    "IsPrimaryKey": "false",
    "DefaultValue": "",
    "Ordinal": 59
  },
  {
    "Name": "CUSTOM_6",
    "FieldType": "Text",
    "ObjectID": "a92562ca-0de6-44db-8f2d-419bbf57cb3d",
    "MaxLength": "50",
    "Scale": "0",
    "IsRequired": "false",
    "IsPrimaryKey": "false",
    "DefaultValue": "",
    "Ordinal": 60
  },
  {
    "Name": "CUSTOM_7",
    "FieldType": "Text",
    "ObjectID": "70139a5c-eddf-4fe7-8b26-ff8e48e1be78",
    "MaxLength": "50",
    "Scale": "0",
    "IsRequired": "false",
    "IsPrimaryKey": "false",
    "DefaultValue": "",
    "Ordinal": 61
  },
  {
    "Name": "CUSTOM_8",
    "FieldType": "Text",
    "ObjectID": "0abc2611-0711-45a7-91c7-1d6ff169b574",
    "MaxLength": "50",
    "Scale": "0",
    "IsRequired": "false",
    "IsPrimaryKey": "false",
    "DefaultValue": "",
    "Ordinal": 62
  },
  {
    "Name": "CUSTOM_9",
    "FieldType": "Text",
    "ObjectID": "9f3ff06b-9ebb-4013-b8d6-c82b1b4cfa70",
    "MaxLength": "50",
    "Scale": "0",
    "IsRequired": "false",
    "IsPrimaryKey": "false",
    "DefaultValue": "",
    "Ordinal": 63
  },
  {
    "Name": "CUSTOM_10",
    "FieldType": "Text",
    "ObjectID": "b21ec5c8-eb75-4b6f-be9c-11fd1cd3086d",
    "MaxLength": "50",
    "Scale": "0",
    "IsRequired": "false",
    "IsPrimaryKey": "false",
    "DefaultValue": "",
    "Ordinal": 64
  },
  {
    "Name": "CUSTOM_11",
    "FieldType": "Text",
    "ObjectID": "e27f753a-8cd9-4fbb-bd6c-115bb441ea3a",
    "MaxLength": "50",
    "Scale": "0",
    "IsRequired": "false",
    "IsPrimaryKey": "false",
    "DefaultValue": "",
    "Ordinal": 65
  },
  {
    "Name": "CUSTOM_12",
    "FieldType": "Text",
    "ObjectID": "fe64683c-fa19-4386-9c2f-94eec09f1cff",
    "MaxLength": "50",
    "Scale": "0",
    "IsRequired": "false",
    "IsPrimaryKey": "false",
    "DefaultValue": "",
    "Ordinal": 66
  },
  {
    "Name": "CUSTOM_13",
    "FieldType": "Text",
    "ObjectID": "f3dde856-4de1-4170-950b-878e47f17a99",
    "MaxLength": "50",
    "Scale": "0",
    "IsRequired": "false",
    "IsPrimaryKey": "false",
    "DefaultValue": "",
    "Ordinal": 67
  },
  {
    "Name": "CUSTOM_14",
    "FieldType": "Text",
    "ObjectID": "d1a690e1-8536-48d2-aced-8789aac87e1c",
    "MaxLength": "50",
    "Scale": "0",
    "IsRequired": "false",
    "IsPrimaryKey": "false",
    "DefaultValue": "",
    "Ordinal": 68
  },
  {
    "Name": "CUSTOM_15",
    "FieldType": "Text",
    "ObjectID": "89687d64-13e3-4955-a802-9223eff5cc28",
    "MaxLength": "50",
    "Scale": "0",
    "IsRequired": "false",
    "IsPrimaryKey": "false",
    "DefaultValue": "",
    "Ordinal": 69
  },
  {
    "Name": "CUSTOM_16",
    "FieldType": "Text",
    "ObjectID": "0d15ca95-542c-4dc8-b226-dde26f491077",
    "MaxLength": "50",
    "Scale": "0",
    "IsRequired": "false",
    "IsPrimaryKey": "false",
    "DefaultValue": "",
    "Ordinal": 70
  },
  {
    "Name": "CUSTOM_17",
    "FieldType": "Text",
    "ObjectID": "b4d12ec3-5703-47cc-8277-fc2091b0c657",
    "MaxLength": "50",
    "Scale": "0",
    "IsRequired": "false",
    "IsPrimaryKey": "false",
    "DefaultValue": "",
    "Ordinal": 71
  },
  {
    "Name": "CUSTOM_18",
    "FieldType": "Text",
    "ObjectID": "a97ae17e-728a-448a-85ff-c1b03054d474",
    "MaxLength": "50",
    "Scale": "0",
    "IsRequired": "false",
    "IsPrimaryKey": "false",
    "DefaultValue": "",
    "Ordinal": 72
  },
  {
    "Name": "CUSTOM_19",
    "FieldType": "Text",
    "ObjectID": "c12cc238-62b8-4562-ad30-ba0258b66e25",
    "MaxLength": "50",
    "Scale": "0",
    "IsRequired": "false",
    "IsPrimaryKey": "false",
    "DefaultValue": "",
    "Ordinal": 73
  },
  {
    "Name": "CUSTOM_20",
    "FieldType": "Text",
    "ObjectID": "4503c958-1fc9-4fb1-b316-33dec43c9404",
    "MaxLength": "50",
    "Scale": "0",
    "IsRequired": "false",
    "IsPrimaryKey": "false",
    "DefaultValue": "",
    "Ordinal": 74
  },
  {
    "Name": "CUSTOM_21",
    "FieldType": "Text",
    "ObjectID": "44f92ceb-4aba-49e4-8a8a-8b616ca58625",
    "MaxLength": "50",
    "Scale": "0",
    "IsRequired": "false",
    "IsPrimaryKey": "false",
    "DefaultValue": "",
    "Ordinal": 75
  },
  {
    "Name": "CUSTOM_22",
    "FieldType": "Text",
    "ObjectID": "61c0e114-25e7-47c1-af4f-aa3200d6541d",
    "MaxLength": "50",
    "Scale": "0",
    "IsRequired": "false",
    "IsPrimaryKey": "false",
    "DefaultValue": "",
    "Ordinal": 76
  },
  {
    "Name": "CUSTOM_23",
    "FieldType": "Text",
    "ObjectID": "4d6740ae-9ba7-4981-8d8a-5f20ba62a7c1",
    "MaxLength": "50",
    "Scale": "0",
    "IsRequired": "false",
    "IsPrimaryKey": "false",
    "DefaultValue": "",
    "Ordinal": 77
  },
  {
    "Name": "CUSTOM_24",
    "FieldType": "Text",
    "ObjectID": "be6cf517-8716-4bc8-b425-53e7022a6cf2",
    "MaxLength": "50",
    "Scale": "0",
    "IsRequired": "false",
    "IsPrimaryKey": "false",
    "DefaultValue": "",
    "Ordinal": 78
  },
  {
    "Name": "CUSTOM_25",
    "FieldType": "Text",
    "ObjectID": "b64a711d-3079-421b-a389-20f1d711bbd9",
    "MaxLength": "50",
    "Scale": "0",
    "IsRequired": "false",
    "IsPrimaryKey": "false",
    "DefaultValue": "",
    "Ordinal": 79
  },
  {
    "Name": "CUSTOM_26",
    "FieldType": "Text",
    "ObjectID": "c0cfdb53-1014-4133-ba48-d8355834d8bb",
    "MaxLength": "50",
    "Scale": "0",
    "IsRequired": "false",
    "IsPrimaryKey": "false",
    "DefaultValue": "",
    "Ordinal": 80
  },
  {
    "Name": "CUSTOM_27",
    "FieldType": "Text",
    "ObjectID": "092f0cca-58ea-4794-8c9d-d0154120a449",
    "MaxLength": "50",
    "Scale": "0",
    "IsRequired": "false",
    "IsPrimaryKey": "false",
    "DefaultValue": "",
    "Ordinal": 81
  },
  {
    "Name": "CUSTOM_28",
    "FieldType": "Text",
    "ObjectID": "51cb799f-7e95-4f40-ba7b-f11d3de3f922",
    "MaxLength": "50",
    "Scale": "0",
    "IsRequired": "false",
    "IsPrimaryKey": "false",
    "DefaultValue": "",
    "Ordinal": 82
  },
  {
    "Name": "CUSTOM_29",
    "FieldType": "Text",
    "ObjectID": "02dff802-f1c7-4a9c-84fc-a52819e34987",
    "MaxLength": "50",
    "Scale": "0",
    "IsRequired": "false",
    "IsPrimaryKey": "false",
    "DefaultValue": "",
    "Ordinal": 83
  },
  {
    "Name": "CUSTOM_30",
    "FieldType": "Text",
    "ObjectID": "76301245-e03d-461e-9880-5d9a27a5b004",
    "MaxLength": "50",
    "Scale": "0",
    "IsRequired": "false",
    "IsPrimaryKey": "false",
    "DefaultValue": "",
    "Ordinal": 84
  },
  {
    "Name": "UNIQUE_IDENTIFIER",
    "FieldType": "Text",
    "ObjectID": "43bf11ca-39e4-4733-b380-daa3bdbbc7c8",
    "MaxLength": "50",
    "Scale": "",
    "IsRequired": "false",
    "IsPrimaryKey": "false",
    "DefaultValue": "",
    "Ordinal": 85
  },
  {
    "Name": "EMAIL_ID",
    "FieldType": "EmailAddress",
    "ObjectID": "f1cdceec-acca-45f6-9213-8de4f9f22480",
    "MaxLength": "254",
    "Scale": "",
    "IsRequired": "false",
    "IsPrimaryKey": "false",
    "DefaultValue": "",
    "Ordinal": 86
  },
  {
    "Name": "CREATED_DATE",
    "FieldType": "Date",
    "ObjectID": "e80c2563-af87-4f8c-b579-776781dcad38",
    "MaxLength": "",
    "Scale": "",
    "IsRequired": "false",
    "IsPrimaryKey": "false",
    "DefaultValue": "GetDate()",
    "Ordinal": 87
  }
]