[
  {
    "Name": "content_id",
    "FieldType": "Text",
    "ObjectID": "49703825-bcd4-47b3-9172-253d5c41f461",
    "MaxLength": "256",
    "Scale": "",
    "IsRequired": "true",
    "IsPrimaryKey": "true",
    "DefaultValue": "",
    "Ordinal": 1
  },
  {
    "Name": "AttribName",
    "FieldType": "Text",
    "ObjectID": "6bd3f25b-a18e-4c37-b2d1-a59c843fcd07",
    "MaxLength": "1000",
    "Scale": "",
    "IsRequired": "true",
    "IsPrimaryKey": "true",
    "DefaultValue": "",
    "Ordinal": 2
  },
  {
    "Name": "AttribValue",
    "FieldType": "Text",
    "ObjectID": "f5db84c4-ecf7-4a4c-9a75-95fee4b92e4f",
    "MaxLength": "1000",
    "Scale": "",
    "IsRequired": "true",
    "IsPrimaryKey": "false",
    "DefaultValue": "",
    "Ordinal": 3
  },
  {
    "Name": "updated_at",
    "FieldType": "Date",
    "ObjectID": "dd0f39b5-54ca-42df-bc51-5df063a35b56",
    "MaxLength": "",
    "Scale": "",
    "IsRequired": "true",
    "IsPrimaryKey": "false",
    "DefaultValue": "",
    "Ordinal": 4
  },
  {
    "Name": "attributeValueIndex",
    "FieldType": "Number",
    "ObjectID": "b758b72b-8e9e-4d11-ae0e-0a81c364eed4",
    "MaxLength": "",
    "Scale": "",
    "IsRequired": "true",
    "IsPrimaryKey": "true",
    "DefaultValue": "",
    "Ordinal": 5
  }
]