{
  "$": {
    "xsi:type": "DataExtension"
  },
  "PartnerKey": [
    {
      "$": {
        "xsi:nil": "true"
      }
    }
  ],
  "ObjectID": [
    {
      "$": {
        "xsi:nil": "true"
      }
    }
  ],
  "CustomerKey": [
    "2977A826-D1FC-479B-ACE4-9E274CB6E104"
  ],
  "Name": [
    "Team2_Leads"
  ]
}