[
  {
    "Name": "attribName",
    "FieldType": "Text",
    "ObjectID": "47f32087-11bb-49bf-bccc-bdb612c6693a",
    "MaxLength": "1000",
    "Scale": "",
    "IsRequired": "true",
    "IsPrimaryKey": "true",
    "DefaultValue": "",
    "Ordinal": 1
  },
  {
    "Name": "attribValue",
    "FieldType": "Text",
    "ObjectID": "bb19f5cf-10c4-4a03-812a-3e442b7c7f5f",
    "MaxLength": "1000",
    "Scale": "",
    "IsRequired": "true",
    "IsPrimaryKey": "false",
    "DefaultValue": "",
    "Ordinal": 2
  },
  {
    "Name": "sku",
    "FieldType": "Text",
    "ObjectID": "20c96baf-cb3a-489d-ac3a-99e16f4c501d",
    "MaxLength": "256",
    "Scale": "",
    "IsRequired": "true",
    "IsPrimaryKey": "true",
    "DefaultValue": "",
    "Ordinal": 3
  },
  {
    "Name": "updated_at",
    "FieldType": "Date",
    "ObjectID": "8237c11d-c064-43ff-b0b5-092650895c08",
    "MaxLength": "",
    "Scale": "",
    "IsRequired": "true",
    "IsPrimaryKey": "false",
    "DefaultValue": "",
    "Ordinal": 4
  },
  {
    "Name": "attributeValueIndex",
    "FieldType": "Number",
    "ObjectID": "70b0619a-f8c1-471b-a0a9-fa51aa8a11f4",
    "MaxLength": "",
    "Scale": "",
    "IsRequired": "true",
    "IsPrimaryKey": "true",
    "DefaultValue": "",
    "Ordinal": 5
  }
]